%YAML 1.1
%TAG !u! tag:unity3d.com,2011:
--- !u!29 &1
OcclusionCullingSettings:
  m_ObjectHideFlags: 0
  serializedVersion: 2
  m_OcclusionBakeSettings:
    smallestOccluder: 5
    smallestHole: 0.25
    backfaceThreshold: 100
  m_SceneGUID: 00000000000000000000000000000000
  m_OcclusionCullingData: {fileID: 0}
--- !u!104 &2
RenderSettings:
  m_ObjectHideFlags: 0
  serializedVersion: 9
  m_Fog: 0
  m_FogColor: {r: 0.5, g: 0.5, b: 0.5, a: 1}
  m_FogMode: 3
  m_FogDensity: 0.01
  m_LinearFogStart: 0
  m_LinearFogEnd: 300
  m_AmbientSkyColor: {r: 0.6072664, g: 0.6387396, b: 0.7058823, a: 1}
  m_AmbientEquatorColor: {r: 0.40570933, g: 0.45604166, b: 0.49264705, a: 1}
  m_AmbientGroundColor: {r: 0.19852942, g: 0.19025737, b: 0.17371324, a: 1}
  m_AmbientIntensity: 1
  m_AmbientMode: 1
  m_SubtractiveShadowColor: {r: 0.42, g: 0.478, b: 0.627, a: 1}
  m_SkyboxMaterial: {fileID: 0}
  m_HaloStrength: 0.5
  m_FlareStrength: 1
  m_FlareFadeSpeed: 3
  m_HaloTexture: {fileID: 0}
  m_SpotCookie: {fileID: 10001, guid: 0000000000000000e000000000000000, type: 0}
  m_DefaultReflectionMode: 0
  m_DefaultReflectionResolution: 128
  m_ReflectionBounces: 1
  m_ReflectionIntensity: 1
  m_CustomReflection: {fileID: 0}
  m_Sun: {fileID: 0}
  m_IndirectSpecularColor: {r: 0, g: 0, b: 0, a: 1}
  m_UseRadianceAmbientProbe: 0
--- !u!157 &3
LightmapSettings:
  m_ObjectHideFlags: 0
  serializedVersion: 12
  m_GIWorkflowMode: 0
  m_GISettings:
    serializedVersion: 2
    m_BounceScale: 1
    m_IndirectOutputScale: 1
    m_AlbedoBoost: 1
    m_EnvironmentLightingMode: 0
    m_EnableBakedLightmaps: 1
    m_EnableRealtimeLightmaps: 1
  m_LightmapEditorSettings:
    serializedVersion: 12
    m_Resolution: 2
    m_BakeResolution: 40
    m_AtlasSize: 1024
    m_AO: 0
    m_AOMaxDistance: 1
    m_CompAOExponent: 1
    m_CompAOExponentDirect: 0
    m_ExtractAmbientOcclusion: 0
    m_Padding: 2
    m_LightmapParameters: {fileID: 0}
    m_LightmapsBakeMode: 1
    m_TextureCompression: 1
    m_FinalGather: 0
    m_FinalGatherFiltering: 1
    m_FinalGatherRayCount: 256
    m_ReflectionCompression: 2
    m_MixedBakeMode: 2
    m_BakeBackend: 0
    m_PVRSampling: 1
    m_PVRDirectSampleCount: 32
    m_PVRSampleCount: 500
    m_PVRBounces: 2
    m_PVREnvironmentSampleCount: 500
    m_PVREnvironmentReferencePointCount: 2048
    m_PVRFilteringMode: 2
    m_PVRDenoiserTypeDirect: 0
    m_PVRDenoiserTypeIndirect: 0
    m_PVRDenoiserTypeAO: 0
    m_PVRFilterTypeDirect: 0
    m_PVRFilterTypeIndirect: 0
    m_PVRFilterTypeAO: 0
    m_PVREnvironmentMIS: 0
    m_PVRCulling: 1
    m_PVRFilteringGaussRadiusDirect: 1
    m_PVRFilteringGaussRadiusIndirect: 5
    m_PVRFilteringGaussRadiusAO: 2
    m_PVRFilteringAtrousPositionSigmaDirect: 0.5
    m_PVRFilteringAtrousPositionSigmaIndirect: 2
    m_PVRFilteringAtrousPositionSigmaAO: 1
    m_ExportTrainingData: 0
    m_TrainingDataDestination: TrainingData
    m_LightProbeSampleCountMultiplier: 4
  m_LightingDataAsset: {fileID: 0}
  m_LightingSettings: {fileID: 4890085278179872738, guid: 8de5ad68cc2e4421e964498ecb91aabd, type: 2}
--- !u!196 &4
NavMeshSettings:
  serializedVersion: 2
  m_ObjectHideFlags: 0
  m_BuildSettings:
    serializedVersion: 2
    agentTypeID: 0
    agentRadius: 0.5
    agentHeight: 2
    agentSlope: 45
    agentClimb: 0.4
    ledgeDropHeight: 0
    maxJumpAcrossDistance: 0
    minRegionArea: 2
    manualCellSize: 0
    cellSize: 0.16666667
    manualTileSize: 0
    tileSize: 256
    accuratePlacement: 0
    maxJobWorkers: 0
    preserveTilesOutsideBounds: 0
    debug:
      m_Flags: 0
  m_NavMeshData: {fileID: 0}
--- !u!114 &13113495 stripped
MonoBehaviour:
  m_CorrespondingSourceObject: {fileID: 7903380295901717489, guid: 73d3e2903ea08cf458096db76e1e214f, type: 3}
  m_PrefabInstance: {fileID: 810271367}
  m_PrefabAsset: {fileID: 0}
  m_GameObject: {fileID: 0}
  m_Enabled: 1
  m_EditorHideFlags: 0
  m_Script: {fileID: 11500000, guid: 9085046f02f69544eb97fd06b6048fe2, type: 3}
  m_Name: 
  m_EditorClassIdentifier: 
--- !u!1 &83868168
GameObject:
  m_ObjectHideFlags: 0
  m_CorrespondingSourceObject: {fileID: 0}
  m_PrefabInstance: {fileID: 0}
  m_PrefabAsset: {fileID: 0}
  serializedVersion: 6
  m_Component:
  - component: {fileID: 83868173}
  - component: {fileID: 83868169}
  - component: {fileID: 83868171}
  - component: {fileID: 83868170}
  - component: {fileID: 83868174}
  m_Layer: 0
  m_Name: AR Camera
  m_TagString: MainCamera
  m_Icon: {fileID: 0}
  m_NavMeshLayer: 0
  m_StaticEditorFlags: 0
  m_IsActive: 1
--- !u!20 &83868169
Camera:
  m_ObjectHideFlags: 0
  m_CorrespondingSourceObject: {fileID: 0}
  m_PrefabInstance: {fileID: 0}
  m_PrefabAsset: {fileID: 0}
  m_GameObject: {fileID: 83868168}
  m_Enabled: 1
  serializedVersion: 2
  m_ClearFlags: 2
  m_BackGroundColor: {r: 0, g: 0, b: 0, a: 0}
  m_projectionMatrixMode: 1
  m_GateFitMode: 2
  m_FOVAxisMode: 0
  m_SensorSize: {x: 36, y: 24}
  m_LensShift: {x: 0, y: 0}
  m_FocalLength: 50
  m_NormalizedViewPortRect:
    serializedVersion: 2
    x: 0
    y: 0
    width: 1
    height: 1
  near clip plane: 0.1
  far clip plane: 20
  field of view: 60
  orthographic: 0
  orthographic size: 5
  m_Depth: 0
  m_CullingMask:
    serializedVersion: 2
    m_Bits: 4294967295
  m_RenderingPath: -1
  m_TargetTexture: {fileID: 0}
  m_TargetDisplay: 0
  m_TargetEye: 3
  m_HDR: 1
  m_AllowMSAA: 1
  m_AllowDynamicResolution: 0
  m_ForceIntoRT: 0
  m_OcclusionCulling: 1
  m_StereoConvergence: 10
  m_StereoSeparation: 0.022
--- !u!114 &83868170
MonoBehaviour:
  m_ObjectHideFlags: 0
  m_CorrespondingSourceObject: {fileID: 0}
  m_PrefabInstance: {fileID: 0}
  m_PrefabAsset: {fileID: 0}
  m_GameObject: {fileID: 83868168}
  m_Enabled: 0
  m_EditorHideFlags: 0
  m_Script: {fileID: 11500000, guid: 816b289ef451e094f9ae174fb4cf8db0, type: 3}
  m_Name: 
  m_EditorClassIdentifier: 
  m_UseCustomMaterial: 0
  m_CustomMaterial: {fileID: 0}
--- !u!114 &83868171
MonoBehaviour:
  m_ObjectHideFlags: 0
  m_CorrespondingSourceObject: {fileID: 0}
  m_PrefabInstance: {fileID: 0}
  m_PrefabAsset: {fileID: 0}
  m_GameObject: {fileID: 83868168}
  m_Enabled: 0
  m_EditorHideFlags: 0
  m_Script: {fileID: 11500000, guid: 4966719baa26e4b0e8231a24d9bd491a, type: 3}
  m_Name: 
  m_EditorClassIdentifier: 
  m_FocusMode: -1
  m_LightEstimationMode: -1
  m_AutoFocus: 1
  m_LightEstimation: 0
  m_FacingDirection: 1
--- !u!4 &83868173
Transform:
  m_ObjectHideFlags: 0
  m_CorrespondingSourceObject: {fileID: 0}
  m_PrefabInstance: {fileID: 0}
  m_PrefabAsset: {fileID: 0}
  m_GameObject: {fileID: 83868168}
  m_LocalRotation: {x: 0, y: 0, z: 0, w: 1}
  m_LocalPosition: {x: 0, y: 0, z: 0}
  m_LocalScale: {x: 1, y: 1, z: 1}
  m_ConstrainProportionsScale: 0
  m_Children: []
  m_Father: {fileID: 1865533052}
  m_RootOrder: 0
  m_LocalEulerAnglesHint: {x: 0, y: 0, z: 0}
--- !u!114 &83868174
MonoBehaviour:
  m_ObjectHideFlags: 0
  m_CorrespondingSourceObject: {fileID: 0}
  m_PrefabInstance: {fileID: 0}
  m_PrefabAsset: {fileID: 0}
  m_GameObject: {fileID: 83868168}
  m_Enabled: 1
  m_EditorHideFlags: 0
  m_Script: {fileID: 11500000, guid: c2fadf230d1919748a9aa21d40f74619, type: 3}
  m_Name: 
  m_EditorClassIdentifier: 
  m_TrackingType: 0
  m_UpdateType: 0
  m_IgnoreTrackingState: 0
  m_PositionInput:
    m_UseReference: 0
    m_Action:
      m_Name: Position Input
      m_Type: 0
      m_ExpectedControlType: 
      m_Id: d2d53c9e-fca8-4ffe-8359-7ef047ab5e9c
      m_Processors: 
      m_Interactions: 
      m_SingletonActionBindings:
      - m_Name: 
        m_Id: dcf1e6bd-3be1-4ecf-b2ca-c3a8208a1eeb
        m_Path: <XRHMD>/devicePosition
        m_Interactions: 
        m_Processors: 
        m_Groups: 
        m_Action: Position Input
        m_Flags: 0
      m_Flags: 0
    m_Reference: {fileID: 0}
  m_RotationInput:
    m_UseReference: 0
    m_Action:
      m_Name: Rotation Input
      m_Type: 0
      m_ExpectedControlType: 
      m_Id: 2a6a8708-9b8a-40c8-8a40-2a457d19c57f
      m_Processors: 
      m_Interactions: 
      m_SingletonActionBindings:
      - m_Name: 
        m_Id: e636b251-2eb1-4d54-9a16-897ed4a634b3
        m_Path: <XRHMD>/deviceRotation
        m_Interactions: 
        m_Processors: 
        m_Groups: 
        m_Action: Rotation Input
        m_Flags: 0
      m_Flags: 0
    m_Reference: {fileID: 0}
  m_TrackingStateInput:
    m_UseReference: 0
    m_Action:
      m_Name: Tracking State Input
      m_Type: 0
      m_ExpectedControlType: 
      m_Id: ef036278-64f7-42ae-9990-7721df8b482b
      m_Processors: 
      m_Interactions: 
      m_SingletonActionBindings: []
      m_Flags: 0
    m_Reference: {fileID: 0}
  m_PositionAction:
    m_Name: 
    m_Type: 0
    m_ExpectedControlType: 
    m_Id: 
    m_Processors: 
    m_Interactions: 
    m_SingletonActionBindings: []
    m_Flags: 0
  m_RotationAction:
    m_Name: 
    m_Type: 0
    m_ExpectedControlType: 
    m_Id: 
    m_Processors: 
    m_Interactions: 
    m_SingletonActionBindings: []
    m_Flags: 0
  m_HasMigratedActions: 1
--- !u!1 &327203364
GameObject:
  m_ObjectHideFlags: 0
  m_CorrespondingSourceObject: {fileID: 0}
  m_PrefabInstance: {fileID: 0}
  m_PrefabAsset: {fileID: 0}
  serializedVersion: 6
  m_Component:
  - component: {fileID: 327203365}
  m_Layer: 0
  m_Name: UI
  m_TagString: Untagged
  m_Icon: {fileID: 0}
  m_NavMeshLayer: 0
  m_StaticEditorFlags: 0
  m_IsActive: 1
--- !u!4 &327203365
Transform:
  m_ObjectHideFlags: 0
  m_CorrespondingSourceObject: {fileID: 0}
  m_PrefabInstance: {fileID: 0}
  m_PrefabAsset: {fileID: 0}
  m_GameObject: {fileID: 327203364}
  m_LocalRotation: {x: 0, y: 0, z: 0, w: 1}
  m_LocalPosition: {x: 0, y: 0, z: 0}
  m_LocalScale: {x: 1, y: 1, z: 1}
  m_ConstrainProportionsScale: 0
  m_Children:
  - {fileID: 810271369}
  - {fileID: 471158136}
  m_Father: {fileID: 0}
  m_RootOrder: 2
  m_LocalEulerAnglesHint: {x: 0, y: 0, z: 0}
--- !u!1001 &471158135
PrefabInstance:
  m_ObjectHideFlags: 0
  serializedVersion: 2
  m_Modification:
    m_TransformParent: {fileID: 327203365}
    m_Modifications:
    - target: {fileID: 59041885795485318, guid: 43dc6ee21a71fb9499eef393d2964d8c, type: 3}
      propertyPath: m_Layer
      value: 0
      objectReference: {fileID: 0}
    - target: {fileID: 765091243630149128, guid: 43dc6ee21a71fb9499eef393d2964d8c, type: 3}
      propertyPath: m_Pivot.x
      value: 0.5
      objectReference: {fileID: 0}
    - target: {fileID: 765091243630149128, guid: 43dc6ee21a71fb9499eef393d2964d8c, type: 3}
      propertyPath: m_Pivot.y
      value: 0.5
      objectReference: {fileID: 0}
    - target: {fileID: 765091243630149128, guid: 43dc6ee21a71fb9499eef393d2964d8c, type: 3}
      propertyPath: m_RootOrder
      value: 1
      objectReference: {fileID: 0}
    - target: {fileID: 765091243630149128, guid: 43dc6ee21a71fb9499eef393d2964d8c, type: 3}
      propertyPath: m_AnchorMax.x
      value: 0.5
      objectReference: {fileID: 0}
    - target: {fileID: 765091243630149128, guid: 43dc6ee21a71fb9499eef393d2964d8c, type: 3}
      propertyPath: m_AnchorMax.y
      value: 0.5
      objectReference: {fileID: 0}
    - target: {fileID: 765091243630149128, guid: 43dc6ee21a71fb9499eef393d2964d8c, type: 3}
      propertyPath: m_AnchorMin.x
      value: 0.5
      objectReference: {fileID: 0}
    - target: {fileID: 765091243630149128, guid: 43dc6ee21a71fb9499eef393d2964d8c, type: 3}
      propertyPath: m_AnchorMin.y
      value: 0.5
      objectReference: {fileID: 0}
    - target: {fileID: 765091243630149128, guid: 43dc6ee21a71fb9499eef393d2964d8c, type: 3}
      propertyPath: m_SizeDelta.x
      value: 600
      objectReference: {fileID: 0}
    - target: {fileID: 765091243630149128, guid: 43dc6ee21a71fb9499eef393d2964d8c, type: 3}
      propertyPath: m_SizeDelta.y
      value: 270
      objectReference: {fileID: 0}
    - target: {fileID: 765091243630149128, guid: 43dc6ee21a71fb9499eef393d2964d8c, type: 3}
      propertyPath: m_LocalScale.x
      value: 0.0009999999
      objectReference: {fileID: 0}
    - target: {fileID: 765091243630149128, guid: 43dc6ee21a71fb9499eef393d2964d8c, type: 3}
      propertyPath: m_LocalScale.y
      value: 0.0009999999
      objectReference: {fileID: 0}
    - target: {fileID: 765091243630149128, guid: 43dc6ee21a71fb9499eef393d2964d8c, type: 3}
      propertyPath: m_LocalScale.z
      value: 0.0009999999
      objectReference: {fileID: 0}
    - target: {fileID: 765091243630149128, guid: 43dc6ee21a71fb9499eef393d2964d8c, type: 3}
      propertyPath: m_LocalPosition.x
      value: 0
      objectReference: {fileID: 0}
    - target: {fileID: 765091243630149128, guid: 43dc6ee21a71fb9499eef393d2964d8c, type: 3}
      propertyPath: m_LocalPosition.y
      value: 0
      objectReference: {fileID: 0}
    - target: {fileID: 765091243630149128, guid: 43dc6ee21a71fb9499eef393d2964d8c, type: 3}
      propertyPath: m_LocalPosition.z
      value: 1.5015
      objectReference: {fileID: 0}
    - target: {fileID: 765091243630149128, guid: 43dc6ee21a71fb9499eef393d2964d8c, type: 3}
      propertyPath: m_LocalRotation.w
      value: 1
      objectReference: {fileID: 0}
    - target: {fileID: 765091243630149128, guid: 43dc6ee21a71fb9499eef393d2964d8c, type: 3}
      propertyPath: m_LocalRotation.x
      value: -0
      objectReference: {fileID: 0}
    - target: {fileID: 765091243630149128, guid: 43dc6ee21a71fb9499eef393d2964d8c, type: 3}
      propertyPath: m_LocalRotation.y
      value: -0
      objectReference: {fileID: 0}
    - target: {fileID: 765091243630149128, guid: 43dc6ee21a71fb9499eef393d2964d8c, type: 3}
      propertyPath: m_LocalRotation.z
      value: -0
      objectReference: {fileID: 0}
    - target: {fileID: 765091243630149128, guid: 43dc6ee21a71fb9499eef393d2964d8c, type: 3}
      propertyPath: m_AnchoredPosition.x
      value: 0.043043002
      objectReference: {fileID: 0}
    - target: {fileID: 765091243630149128, guid: 43dc6ee21a71fb9499eef393d2964d8c, type: 3}
      propertyPath: m_AnchoredPosition.y
      value: -0.47724995
      objectReference: {fileID: 0}
    - target: {fileID: 765091243630149128, guid: 43dc6ee21a71fb9499eef393d2964d8c, type: 3}
      propertyPath: m_LocalEulerAnglesHint.x
      value: 0
      objectReference: {fileID: 0}
    - target: {fileID: 765091243630149128, guid: 43dc6ee21a71fb9499eef393d2964d8c, type: 3}
      propertyPath: m_LocalEulerAnglesHint.y
      value: 0
      objectReference: {fileID: 0}
    - target: {fileID: 765091243630149128, guid: 43dc6ee21a71fb9499eef393d2964d8c, type: 3}
      propertyPath: m_LocalEulerAnglesHint.z
      value: 0
      objectReference: {fileID: 0}
    - target: {fileID: 1592149587720646680, guid: 43dc6ee21a71fb9499eef393d2964d8c, type: 3}
      propertyPath: m_Layer
      value: 0
      objectReference: {fileID: 0}
    - target: {fileID: 1625823560322630978, guid: 43dc6ee21a71fb9499eef393d2964d8c, type: 3}
      propertyPath: m_Layer
      value: 0
      objectReference: {fileID: 0}
    - target: {fileID: 1631270114053208553, guid: 43dc6ee21a71fb9499eef393d2964d8c, type: 3}
      propertyPath: m_Layer
      value: 0
      objectReference: {fileID: 0}
    - target: {fileID: 1759050865911094270, guid: 43dc6ee21a71fb9499eef393d2964d8c, type: 3}
      propertyPath: m_Layer
      value: 0
      objectReference: {fileID: 0}
    - target: {fileID: 2127531513806513372, guid: 43dc6ee21a71fb9499eef393d2964d8c, type: 3}
      propertyPath: m_Layer
      value: 0
      objectReference: {fileID: 0}
    - target: {fileID: 3958000013856111451, guid: 43dc6ee21a71fb9499eef393d2964d8c, type: 3}
      propertyPath: m_Layer
      value: 0
      objectReference: {fileID: 0}
    - target: {fileID: 4043488598623751447, guid: 43dc6ee21a71fb9499eef393d2964d8c, type: 3}
      propertyPath: m_Layer
      value: 0
      objectReference: {fileID: 0}
    - target: {fileID: 4983864233674506708, guid: 43dc6ee21a71fb9499eef393d2964d8c, type: 3}
      propertyPath: m_AdditionalShaderChannelsFlag
      value: 25
      objectReference: {fileID: 0}
    - target: {fileID: 6127800468549594240, guid: 43dc6ee21a71fb9499eef393d2964d8c, type: 3}
      propertyPath: m_Layer
      value: 0
      objectReference: {fileID: 0}
    - target: {fileID: 6136261589263094962, guid: 43dc6ee21a71fb9499eef393d2964d8c, type: 3}
      propertyPath: m_Layer
      value: 0
      objectReference: {fileID: 0}
    - target: {fileID: 6552851735282121210, guid: 43dc6ee21a71fb9499eef393d2964d8c, type: 3}
      propertyPath: m_Layer
      value: 0
      objectReference: {fileID: 0}
    - target: {fileID: 6792068529623256084, guid: 43dc6ee21a71fb9499eef393d2964d8c, type: 3}
      propertyPath: m_AnchoredPosition.y
      value: 0
      objectReference: {fileID: 0}
    - target: {fileID: 7195463418032752570, guid: 43dc6ee21a71fb9499eef393d2964d8c, type: 3}
      propertyPath: m_PresetInfoIsWorld
      value: 1
      objectReference: {fileID: 0}
    - target: {fileID: 7199565234617609749, guid: 43dc6ee21a71fb9499eef393d2964d8c, type: 3}
      propertyPath: m_OnClick.m_PersistentCalls.m_Calls.Array.size
      value: 1
      objectReference: {fileID: 0}
    - target: {fileID: 7199565234617609749, guid: 43dc6ee21a71fb9499eef393d2964d8c, type: 3}
      propertyPath: m_OnClick.m_PersistentCalls.m_Calls.Array.data[0].m_Mode
      value: 1
      objectReference: {fileID: 0}
    - target: {fileID: 7199565234617609749, guid: 43dc6ee21a71fb9499eef393d2964d8c, type: 3}
      propertyPath: m_OnClick.m_PersistentCalls.m_Calls.Array.data[0].m_Target
      value: 
      objectReference: {fileID: 1946092207}
    - target: {fileID: 7199565234617609749, guid: 43dc6ee21a71fb9499eef393d2964d8c, type: 3}
      propertyPath: m_OnClick.m_PersistentCalls.m_Calls.Array.data[0].m_CallState
      value: 2
      objectReference: {fileID: 0}
    - target: {fileID: 7199565234617609749, guid: 43dc6ee21a71fb9499eef393d2964d8c, type: 3}
      propertyPath: m_OnClick.m_PersistentCalls.m_Calls.Array.data[0].m_MethodName
      value: OnCreateButtonClicked
      objectReference: {fileID: 0}
    - target: {fileID: 7199565234617609749, guid: 43dc6ee21a71fb9499eef393d2964d8c, type: 3}
      propertyPath: m_OnClick.m_PersistentCalls.m_Calls.Array.data[0].m_TargetAssemblyTypeName
      value: Qualcomm.Snapdragon.Spaces.Samples.AnchorSampleController, Assembly-CSharp
      objectReference: {fileID: 0}
    - target: {fileID: 7199565234617609749, guid: 43dc6ee21a71fb9499eef393d2964d8c, type: 3}
      propertyPath: m_OnClick.m_PersistentCalls.m_Calls.Array.data[0].m_Arguments.m_ObjectArgumentAssemblyTypeName
      value: UnityEngine.Object, UnityEngine
      objectReference: {fileID: 0}
    - target: {fileID: 7476291542321789372, guid: 43dc6ee21a71fb9499eef393d2964d8c, type: 3}
      propertyPath: m_Layer
      value: 0
      objectReference: {fileID: 0}
    - target: {fileID: 7576326981210429490, guid: 43dc6ee21a71fb9499eef393d2964d8c, type: 3}
      propertyPath: m_Name
      value: UI Menu Spaces Anchor Placement Panel
      objectReference: {fileID: 0}
    - target: {fileID: 7576326981210429490, guid: 43dc6ee21a71fb9499eef393d2964d8c, type: 3}
      propertyPath: m_Layer
      value: 0
      objectReference: {fileID: 0}
    - target: {fileID: 7576326981210429490, guid: 43dc6ee21a71fb9499eef393d2964d8c, type: 3}
      propertyPath: m_IsActive
      value: 0
      objectReference: {fileID: 0}
    - target: {fileID: 7744252006380309293, guid: 43dc6ee21a71fb9499eef393d2964d8c, type: 3}
      propertyPath: m_Layer
      value: 0
      objectReference: {fileID: 0}
    - target: {fileID: 8391512964780382559, guid: 43dc6ee21a71fb9499eef393d2964d8c, type: 3}
      propertyPath: m_Layer
      value: 0
      objectReference: {fileID: 0}
    - target: {fileID: 8551949425834578792, guid: 43dc6ee21a71fb9499eef393d2964d8c, type: 3}
      propertyPath: m_AnchorMax.x
      value: 1
      objectReference: {fileID: 0}
    - target: {fileID: 8551949425834578792, guid: 43dc6ee21a71fb9499eef393d2964d8c, type: 3}
      propertyPath: m_AnchorMax.y
      value: 1
      objectReference: {fileID: 0}
    - target: {fileID: 8551949425834578792, guid: 43dc6ee21a71fb9499eef393d2964d8c, type: 3}
      propertyPath: m_AnchorMin.x
      value: 0
      objectReference: {fileID: 0}
    - target: {fileID: 8551949425834578792, guid: 43dc6ee21a71fb9499eef393d2964d8c, type: 3}
      propertyPath: m_AnchorMin.y
      value: 0
      objectReference: {fileID: 0}
    - target: {fileID: 8551949425834578792, guid: 43dc6ee21a71fb9499eef393d2964d8c, type: 3}
      propertyPath: m_SizeDelta.x
      value: 0
      objectReference: {fileID: 0}
    - target: {fileID: 8551949425834578792, guid: 43dc6ee21a71fb9499eef393d2964d8c, type: 3}
      propertyPath: m_AnchoredPosition.y
      value: 0
      objectReference: {fileID: 0}
    - target: {fileID: 8911676007803368471, guid: 43dc6ee21a71fb9499eef393d2964d8c, type: 3}
      propertyPath: m_Layer
      value: 0
      objectReference: {fileID: 0}
    - target: {fileID: 9202167130624202846, guid: 43dc6ee21a71fb9499eef393d2964d8c, type: 3}
      propertyPath: m_Layer
      value: 0
      objectReference: {fileID: 0}
    m_RemovedComponents: []
  m_SourcePrefab: {fileID: 100100000, guid: 43dc6ee21a71fb9499eef393d2964d8c, type: 3}
--- !u!224 &471158136 stripped
RectTransform:
  m_CorrespondingSourceObject: {fileID: 765091243630149128, guid: 43dc6ee21a71fb9499eef393d2964d8c, type: 3}
  m_PrefabInstance: {fileID: 471158135}
  m_PrefabAsset: {fileID: 0}
--- !u!1 &471158137 stripped
GameObject:
  m_CorrespondingSourceObject: {fileID: 7576326981210429490, guid: 43dc6ee21a71fb9499eef393d2964d8c, type: 3}
  m_PrefabInstance: {fileID: 471158135}
  m_PrefabAsset: {fileID: 0}
--- !u!1 &741222973
GameObject:
  m_ObjectHideFlags: 0
  m_CorrespondingSourceObject: {fileID: 0}
  m_PrefabInstance: {fileID: 0}
  m_PrefabAsset: {fileID: 0}
  serializedVersion: 6
  m_Component:
  - component: {fileID: 741222976}
  - component: {fileID: 741222975}
  - component: {fileID: 741222974}
  m_Layer: 0
  m_Name: AR Session
  m_TagString: Untagged
  m_Icon: {fileID: 0}
  m_NavMeshLayer: 0
  m_StaticEditorFlags: 0
  m_IsActive: 1
--- !u!114 &741222974
MonoBehaviour:
  m_ObjectHideFlags: 0
  m_CorrespondingSourceObject: {fileID: 0}
  m_PrefabInstance: {fileID: 0}
  m_PrefabAsset: {fileID: 0}
  m_GameObject: {fileID: 741222973}
  m_Enabled: 1
  m_EditorHideFlags: 0
  m_Script: {fileID: 11500000, guid: fa850fbd5b8aded44846f96e35f1a9f5, type: 3}
  m_Name: 
  m_EditorClassIdentifier: 
--- !u!114 &741222975
MonoBehaviour:
  m_ObjectHideFlags: 0
  m_CorrespondingSourceObject: {fileID: 0}
  m_PrefabInstance: {fileID: 0}
  m_PrefabAsset: {fileID: 0}
  m_GameObject: {fileID: 741222973}
  m_Enabled: 1
  m_EditorHideFlags: 0
  m_Script: {fileID: 11500000, guid: 3859a92a05d4f5d418cb6ca605290e74, type: 3}
  m_Name: 
  m_EditorClassIdentifier: 
  m_AttemptUpdate: 1
  m_MatchFrameRate: 1
  m_TrackingMode: 2
--- !u!4 &741222976
Transform:
  m_ObjectHideFlags: 0
  m_CorrespondingSourceObject: {fileID: 0}
  m_PrefabInstance: {fileID: 0}
  m_PrefabAsset: {fileID: 0}
  m_GameObject: {fileID: 741222973}
  m_LocalRotation: {x: 0, y: 0, z: 0, w: 1}
  m_LocalPosition: {x: 0, y: 0, z: 0}
  m_LocalScale: {x: 1, y: 1, z: 1}
  m_ConstrainProportionsScale: 0
  m_Children: []
  m_Father: {fileID: 0}
  m_RootOrder: 0
  m_LocalEulerAnglesHint: {x: 0, y: 0, z: 0}
--- !u!1001 &810271367
PrefabInstance:
  m_ObjectHideFlags: 0
  serializedVersion: 2
  m_Modification:
    m_TransformParent: {fileID: 327203365}
    m_Modifications:
    - target: {fileID: 898417451913912853, guid: 73d3e2903ea08cf458096db76e1e214f, type: 3}
      propertyPath: m_AnchorMax.y
      value: 0
      objectReference: {fileID: 0}
    - target: {fileID: 898417451913912853, guid: 73d3e2903ea08cf458096db76e1e214f, type: 3}
      propertyPath: m_AnchorMin.y
      value: 0
      objectReference: {fileID: 0}
    - target: {fileID: 898417451913912853, guid: 73d3e2903ea08cf458096db76e1e214f, type: 3}
      propertyPath: m_SizeDelta.x
      value: 0
      objectReference: {fileID: 0}
    - target: {fileID: 898417451913912853, guid: 73d3e2903ea08cf458096db76e1e214f, type: 3}
      propertyPath: m_AnchoredPosition.x
      value: 0
      objectReference: {fileID: 0}
    - target: {fileID: 898417451913912853, guid: 73d3e2903ea08cf458096db76e1e214f, type: 3}
      propertyPath: m_AnchoredPosition.y
      value: 0
      objectReference: {fileID: 0}
    - target: {fileID: 1344825845743024396, guid: 73d3e2903ea08cf458096db76e1e214f, type: 3}
      propertyPath: m_OnClick.m_PersistentCalls.m_Calls.Array.size
      value: 1
      objectReference: {fileID: 0}
    - target: {fileID: 1344825845743024396, guid: 73d3e2903ea08cf458096db76e1e214f, type: 3}
      propertyPath: m_OnClick.m_PersistentCalls.m_Calls.Array.data[0].m_Mode
      value: 1
      objectReference: {fileID: 0}
    - target: {fileID: 1344825845743024396, guid: 73d3e2903ea08cf458096db76e1e214f, type: 3}
      propertyPath: m_OnClick.m_PersistentCalls.m_Calls.Array.data[0].m_Target
      value: 
      objectReference: {fileID: 1946092207}
    - target: {fileID: 1344825845743024396, guid: 73d3e2903ea08cf458096db76e1e214f, type: 3}
      propertyPath: m_OnClick.m_PersistentCalls.m_Calls.Array.data[0].m_CallState
      value: 2
      objectReference: {fileID: 0}
    - target: {fileID: 1344825845743024396, guid: 73d3e2903ea08cf458096db76e1e214f, type: 3}
      propertyPath: m_OnClick.m_PersistentCalls.m_Calls.Array.data[0].m_MethodName
      value: OnCreateButtonClicked
      objectReference: {fileID: 0}
    - target: {fileID: 1344825845743024396, guid: 73d3e2903ea08cf458096db76e1e214f, type: 3}
      propertyPath: m_OnClick.m_PersistentCalls.m_Calls.Array.data[0].m_TargetAssemblyTypeName
      value: Qualcomm.Snapdragon.Spaces.Samples.AnchorSampleController, Assembly-CSharp
      objectReference: {fileID: 0}
    - target: {fileID: 1344825845743024396, guid: 73d3e2903ea08cf458096db76e1e214f, type: 3}
      propertyPath: m_OnClick.m_PersistentCalls.m_Calls.Array.data[0].m_Arguments.m_ObjectArgumentAssemblyTypeName
      value: UnityEngine.Object, UnityEngine
      objectReference: {fileID: 0}
    - target: {fileID: 2314901148750194629, guid: 73d3e2903ea08cf458096db76e1e214f, type: 3}
      propertyPath: m_AnchorMax.y
      value: 0
      objectReference: {fileID: 0}
    - target: {fileID: 2314901148750194629, guid: 73d3e2903ea08cf458096db76e1e214f, type: 3}
      propertyPath: m_AnchorMin.y
      value: 0
      objectReference: {fileID: 0}
    - target: {fileID: 2314901148750194629, guid: 73d3e2903ea08cf458096db76e1e214f, type: 3}
      propertyPath: m_SizeDelta.x
      value: 0
      objectReference: {fileID: 0}
    - target: {fileID: 2314901148750194629, guid: 73d3e2903ea08cf458096db76e1e214f, type: 3}
      propertyPath: m_AnchoredPosition.x
      value: 0
      objectReference: {fileID: 0}
    - target: {fileID: 2314901148750194629, guid: 73d3e2903ea08cf458096db76e1e214f, type: 3}
      propertyPath: m_AnchoredPosition.y
      value: 0
      objectReference: {fileID: 0}
    - target: {fileID: 2354075266082621539, guid: 73d3e2903ea08cf458096db76e1e214f, type: 3}
      propertyPath: m_AnchorMax.y
      value: 0
      objectReference: {fileID: 0}
    - target: {fileID: 2354075266082621539, guid: 73d3e2903ea08cf458096db76e1e214f, type: 3}
      propertyPath: m_AnchorMin.y
      value: 0
      objectReference: {fileID: 0}
    - target: {fileID: 2354075266082621539, guid: 73d3e2903ea08cf458096db76e1e214f, type: 3}
      propertyPath: m_SizeDelta.x
      value: 0
      objectReference: {fileID: 0}
    - target: {fileID: 2354075266082621539, guid: 73d3e2903ea08cf458096db76e1e214f, type: 3}
      propertyPath: m_AnchoredPosition.x
      value: 0
      objectReference: {fileID: 0}
    - target: {fileID: 2354075266082621539, guid: 73d3e2903ea08cf458096db76e1e214f, type: 3}
      propertyPath: m_AnchoredPosition.y
      value: 0
      objectReference: {fileID: 0}
    - target: {fileID: 2518008113219219777, guid: 73d3e2903ea08cf458096db76e1e214f, type: 3}
      propertyPath: m_Pivot.y
      value: 0.5
      objectReference: {fileID: 0}
    - target: {fileID: 2518008113219219777, guid: 73d3e2903ea08cf458096db76e1e214f, type: 3}
      propertyPath: m_RootOrder
      value: 0
      objectReference: {fileID: 0}
    - target: {fileID: 2518008113219219777, guid: 73d3e2903ea08cf458096db76e1e214f, type: 3}
      propertyPath: m_LocalPosition.x
      value: 0
      objectReference: {fileID: 0}
    - target: {fileID: 2518008113219219777, guid: 73d3e2903ea08cf458096db76e1e214f, type: 3}
      propertyPath: m_LocalPosition.y
      value: 0
      objectReference: {fileID: 0}
    - target: {fileID: 2518008113219219777, guid: 73d3e2903ea08cf458096db76e1e214f, type: 3}
      propertyPath: m_LocalEulerAnglesHint.x
      value: 0
      objectReference: {fileID: 0}
    - target: {fileID: 2518008113219219777, guid: 73d3e2903ea08cf458096db76e1e214f, type: 3}
      propertyPath: m_LocalEulerAnglesHint.y
      value: 0
      objectReference: {fileID: 0}
    - target: {fileID: 2518008113219219777, guid: 73d3e2903ea08cf458096db76e1e214f, type: 3}
      propertyPath: m_LocalEulerAnglesHint.z
      value: 0
      objectReference: {fileID: 0}
    - target: {fileID: 2630121900222973827, guid: 73d3e2903ea08cf458096db76e1e214f, type: 3}
      propertyPath: m_IsActive
      value: 0
      objectReference: {fileID: 0}
    - target: {fileID: 2729787000763161232, guid: 73d3e2903ea08cf458096db76e1e214f, type: 3}
      propertyPath: m_Delegates.Array.data[0].callback.m_PersistentCalls.m_Calls.Array.data[0].m_Target
      value: 
      objectReference: {fileID: 1946092207}
    - target: {fileID: 2729787000763161232, guid: 73d3e2903ea08cf458096db76e1e214f, type: 3}
      propertyPath: m_Delegates.Array.data[1].callback.m_PersistentCalls.m_Calls.Array.data[0].m_Target
      value: 
      objectReference: {fileID: 1946092207}
    - target: {fileID: 2729787000763161232, guid: 73d3e2903ea08cf458096db76e1e214f, type: 3}
      propertyPath: m_Delegates.Array.data[0].callback.m_PersistentCalls.m_Calls.Array.data[0].m_MethodName
      value: OnPointerEnterEvent
      objectReference: {fileID: 0}
    - target: {fileID: 2729787000763161232, guid: 73d3e2903ea08cf458096db76e1e214f, type: 3}
      propertyPath: m_Delegates.Array.data[1].callback.m_PersistentCalls.m_Calls.Array.data[0].m_MethodName
      value: OnPointerExitEvent
      objectReference: {fileID: 0}
    - target: {fileID: 2729787000763161232, guid: 73d3e2903ea08cf458096db76e1e214f, type: 3}
      propertyPath: m_Delegates.Array.data[0].callback.m_PersistentCalls.m_Calls.Array.data[0].m_TargetAssemblyTypeName
      value: Qualcomm.Snapdragon.Spaces.Samples.AnchorSampleController, Snapdragon.Spaces.Samples
      objectReference: {fileID: 0}
    - target: {fileID: 2729787000763161232, guid: 73d3e2903ea08cf458096db76e1e214f, type: 3}
      propertyPath: m_Delegates.Array.data[1].callback.m_PersistentCalls.m_Calls.Array.data[0].m_TargetAssemblyTypeName
      value: Qualcomm.Snapdragon.Spaces.Samples.AnchorSampleController, Snapdragon.Spaces.Samples
      objectReference: {fileID: 0}
    - target: {fileID: 3387410347926838029, guid: 73d3e2903ea08cf458096db76e1e214f, type: 3}
      propertyPath: m_AnchoredPosition.y
      value: 0
      objectReference: {fileID: 0}
    - target: {fileID: 3388373808833869354, guid: 73d3e2903ea08cf458096db76e1e214f, type: 3}
      propertyPath: m_Delegates.Array.data[0].callback.m_PersistentCalls.m_Calls.Array.data[0].m_Target
      value: 
      objectReference: {fileID: 1946092207}
    - target: {fileID: 3388373808833869354, guid: 73d3e2903ea08cf458096db76e1e214f, type: 3}
      propertyPath: m_Delegates.Array.data[1].callback.m_PersistentCalls.m_Calls.Array.data[0].m_Target
      value: 
      objectReference: {fileID: 1946092207}
    - target: {fileID: 3688257670720985969, guid: 73d3e2903ea08cf458096db76e1e214f, type: 3}
      propertyPath: m_AnchorMax.y
      value: 0
      objectReference: {fileID: 0}
    - target: {fileID: 3688257670720985969, guid: 73d3e2903ea08cf458096db76e1e214f, type: 3}
      propertyPath: m_AnchorMin.y
      value: 0
      objectReference: {fileID: 0}
    - target: {fileID: 3688257670720985969, guid: 73d3e2903ea08cf458096db76e1e214f, type: 3}
      propertyPath: m_SizeDelta.x
      value: 0
      objectReference: {fileID: 0}
    - target: {fileID: 3688257670720985969, guid: 73d3e2903ea08cf458096db76e1e214f, type: 3}
      propertyPath: m_AnchoredPosition.x
      value: 0
      objectReference: {fileID: 0}
    - target: {fileID: 3688257670720985969, guid: 73d3e2903ea08cf458096db76e1e214f, type: 3}
      propertyPath: m_AnchoredPosition.y
      value: 0
      objectReference: {fileID: 0}
    - target: {fileID: 3739806942062391276, guid: 73d3e2903ea08cf458096db76e1e214f, type: 3}
      propertyPath: m_OnClick.m_PersistentCalls.m_Calls.Array.data[0].m_Target
      value: 
      objectReference: {fileID: 1946092207}
    - target: {fileID: 3739806942062391276, guid: 73d3e2903ea08cf458096db76e1e214f, type: 3}
      propertyPath: m_OnClick.m_PersistentCalls.m_Calls.Array.data[0].m_MethodName
      value: ClearAnchorStore
      objectReference: {fileID: 0}
    - target: {fileID: 3739806942062391276, guid: 73d3e2903ea08cf458096db76e1e214f, type: 3}
      propertyPath: m_OnClick.m_PersistentCalls.m_Calls.Array.data[0].m_TargetAssemblyTypeName
      value: Qualcomm.Snapdragon.Spaces.Samples.AnchorSampleController, Assembly-CSharp
      objectReference: {fileID: 0}
    - target: {fileID: 3739806942062391276, guid: 73d3e2903ea08cf458096db76e1e214f, type: 3}
      propertyPath: m_OnClick.m_PersistentCalls.m_Calls.Array.data[0].m_Arguments.m_ObjectArgumentAssemblyTypeName
      value: UnityEngine.Object, UnityEngine
      objectReference: {fileID: 0}
    - target: {fileID: 3802789112542008601, guid: 73d3e2903ea08cf458096db76e1e214f, type: 3}
      propertyPath: m_AnchorMax.y
      value: 0
      objectReference: {fileID: 0}
    - target: {fileID: 3802789112542008601, guid: 73d3e2903ea08cf458096db76e1e214f, type: 3}
      propertyPath: m_AnchorMin.y
      value: 0
      objectReference: {fileID: 0}
    - target: {fileID: 3802789112542008601, guid: 73d3e2903ea08cf458096db76e1e214f, type: 3}
      propertyPath: m_SizeDelta.x
      value: 0
      objectReference: {fileID: 0}
    - target: {fileID: 3802789112542008601, guid: 73d3e2903ea08cf458096db76e1e214f, type: 3}
      propertyPath: m_AnchoredPosition.x
      value: 0
      objectReference: {fileID: 0}
    - target: {fileID: 3802789112542008601, guid: 73d3e2903ea08cf458096db76e1e214f, type: 3}
      propertyPath: m_AnchoredPosition.y
      value: 0
      objectReference: {fileID: 0}
    - target: {fileID: 4116535780537948388, guid: 73d3e2903ea08cf458096db76e1e214f, type: 3}
      propertyPath: m_Delegates.Array.data[0].callback.m_PersistentCalls.m_Calls.Array.data[0].m_Target
      value: 
      objectReference: {fileID: 1946092207}
    - target: {fileID: 4116535780537948388, guid: 73d3e2903ea08cf458096db76e1e214f, type: 3}
      propertyPath: m_Delegates.Array.data[1].callback.m_PersistentCalls.m_Calls.Array.data[0].m_Target
      value: 
      objectReference: {fileID: 1946092207}
    - target: {fileID: 4296115907005465029, guid: 73d3e2903ea08cf458096db76e1e214f, type: 3}
      propertyPath: m_Delegates.Array.data[0].callback.m_PersistentCalls.m_Calls.Array.data[0].m_Target
      value: 
      objectReference: {fileID: 1946092207}
    - target: {fileID: 4296115907005465029, guid: 73d3e2903ea08cf458096db76e1e214f, type: 3}
      propertyPath: m_Delegates.Array.data[1].callback.m_PersistentCalls.m_Calls.Array.data[0].m_Target
      value: 
      objectReference: {fileID: 1946092207}
    - target: {fileID: 4704960169441548155, guid: 73d3e2903ea08cf458096db76e1e214f, type: 3}
      propertyPath: m_Name
      value: UI Menu Spaces Anchor
      objectReference: {fileID: 0}
    - target: {fileID: 4704960169441548155, guid: 73d3e2903ea08cf458096db76e1e214f, type: 3}
      propertyPath: m_IsActive
      value: 1
      objectReference: {fileID: 0}
    - target: {fileID: 4880209941938425392, guid: 73d3e2903ea08cf458096db76e1e214f, type: 3}
      propertyPath: m_OnClick.m_PersistentCalls.m_Calls.Array.data[0].m_Target
      value: 
      objectReference: {fileID: 1946092207}
    - target: {fileID: 4880209941938425392, guid: 73d3e2903ea08cf458096db76e1e214f, type: 3}
      propertyPath: m_OnClick.m_PersistentCalls.m_Calls.Array.data[0].m_MethodName
      value: LoadAllSavedAnchors
      objectReference: {fileID: 0}
    - target: {fileID: 4880209941938425392, guid: 73d3e2903ea08cf458096db76e1e214f, type: 3}
      propertyPath: m_OnClick.m_PersistentCalls.m_Calls.Array.data[0].m_TargetAssemblyTypeName
      value: Qualcomm.Snapdragon.Spaces.Samples.AnchorSampleController, Assembly-CSharp
      objectReference: {fileID: 0}
    - target: {fileID: 4880209941938425392, guid: 73d3e2903ea08cf458096db76e1e214f, type: 3}
      propertyPath: m_OnClick.m_PersistentCalls.m_Calls.Array.data[0].m_Arguments.m_ObjectArgumentAssemblyTypeName
      value: UnityEngine.Object, UnityEngine
      objectReference: {fileID: 0}
    - target: {fileID: 5455141987001075955, guid: 73d3e2903ea08cf458096db76e1e214f, type: 3}
      propertyPath: m_PresetInfoIsWorld
      value: 1
      objectReference: {fileID: 0}
    - target: {fileID: 5629998518774105755, guid: 73d3e2903ea08cf458096db76e1e214f, type: 3}
      propertyPath: m_Delegates.Array.data[0].callback.m_PersistentCalls.m_Calls.Array.data[0].m_Target
      value: 
      objectReference: {fileID: 1946092207}
    - target: {fileID: 5629998518774105755, guid: 73d3e2903ea08cf458096db76e1e214f, type: 3}
      propertyPath: m_Delegates.Array.data[1].callback.m_PersistentCalls.m_Calls.Array.data[0].m_Target
      value: 
      objectReference: {fileID: 1946092207}
    - target: {fileID: 5629998518774105755, guid: 73d3e2903ea08cf458096db76e1e214f, type: 3}
      propertyPath: m_Delegates.Array.data[0].callback.m_PersistentCalls.m_Calls.Array.data[0].m_MethodName
      value: OnPointerEnterEvent
      objectReference: {fileID: 0}
    - target: {fileID: 5629998518774105755, guid: 73d3e2903ea08cf458096db76e1e214f, type: 3}
      propertyPath: m_Delegates.Array.data[1].callback.m_PersistentCalls.m_Calls.Array.data[0].m_MethodName
      value: OnPointerExitEvent
      objectReference: {fileID: 0}
    - target: {fileID: 5629998518774105755, guid: 73d3e2903ea08cf458096db76e1e214f, type: 3}
      propertyPath: m_Delegates.Array.data[0].callback.m_PersistentCalls.m_Calls.Array.data[0].m_TargetAssemblyTypeName
      value: Qualcomm.Snapdragon.Spaces.Samples.AnchorSampleController, Snapdragon.Spaces.Samples
      objectReference: {fileID: 0}
    - target: {fileID: 5629998518774105755, guid: 73d3e2903ea08cf458096db76e1e214f, type: 3}
      propertyPath: m_Delegates.Array.data[1].callback.m_PersistentCalls.m_Calls.Array.data[0].m_TargetAssemblyTypeName
      value: Qualcomm.Snapdragon.Spaces.Samples.AnchorSampleController, Snapdragon.Spaces.Samples
      objectReference: {fileID: 0}
    - target: {fileID: 5629998518774105755, guid: 73d3e2903ea08cf458096db76e1e214f, type: 3}
      propertyPath: m_Delegates.Array.data[0].callback.m_PersistentCalls.m_Calls.Array.data[0].m_Arguments.m_ObjectArgumentAssemblyTypeName
      value: UnityEngine.Object, UnityEngine
      objectReference: {fileID: 0}
    - target: {fileID: 5629998518774105755, guid: 73d3e2903ea08cf458096db76e1e214f, type: 3}
      propertyPath: m_Delegates.Array.data[1].callback.m_PersistentCalls.m_Calls.Array.data[0].m_Arguments.m_ObjectArgumentAssemblyTypeName
      value: UnityEngine.Object, UnityEngine
      objectReference: {fileID: 0}
    - target: {fileID: 6181504745384185702, guid: 73d3e2903ea08cf458096db76e1e214f, type: 3}
      propertyPath: m_Delegates.Array.data[0].callback.m_PersistentCalls.m_Calls.Array.data[0].m_Target
      value: 
      objectReference: {fileID: 1946092207}
    - target: {fileID: 6181504745384185702, guid: 73d3e2903ea08cf458096db76e1e214f, type: 3}
      propertyPath: m_Delegates.Array.data[1].callback.m_PersistentCalls.m_Calls.Array.data[0].m_Target
      value: 
      objectReference: {fileID: 1946092207}
    - target: {fileID: 6495399708970384983, guid: 73d3e2903ea08cf458096db76e1e214f, type: 3}
      propertyPath: m_Delegates.Array.data[0].callback.m_PersistentCalls.m_Calls.Array.data[0].m_Target
      value: 
      objectReference: {fileID: 1946092207}
    - target: {fileID: 6495399708970384983, guid: 73d3e2903ea08cf458096db76e1e214f, type: 3}
      propertyPath: m_Delegates.Array.data[1].callback.m_PersistentCalls.m_Calls.Array.data[0].m_Target
      value: 
      objectReference: {fileID: 1946092207}
    - target: {fileID: 7115460484864058463, guid: 73d3e2903ea08cf458096db76e1e214f, type: 3}
      propertyPath: m_Delegates.Array.data[0].callback.m_PersistentCalls.m_Calls.Array.data[0].m_Target
      value: 
      objectReference: {fileID: 1946092207}
    - target: {fileID: 7115460484864058463, guid: 73d3e2903ea08cf458096db76e1e214f, type: 3}
      propertyPath: m_Delegates.Array.data[1].callback.m_PersistentCalls.m_Calls.Array.data[0].m_Target
      value: 
      objectReference: {fileID: 1946092207}
    - target: {fileID: 7239011977115153342, guid: 73d3e2903ea08cf458096db76e1e214f, type: 3}
      propertyPath: m_AnchorMax.y
      value: 0
      objectReference: {fileID: 0}
    - target: {fileID: 7239011977115153342, guid: 73d3e2903ea08cf458096db76e1e214f, type: 3}
      propertyPath: m_AnchorMin.y
      value: 0
      objectReference: {fileID: 0}
    - target: {fileID: 7239011977115153342, guid: 73d3e2903ea08cf458096db76e1e214f, type: 3}
      propertyPath: m_SizeDelta.x
      value: 0
      objectReference: {fileID: 0}
    - target: {fileID: 7239011977115153342, guid: 73d3e2903ea08cf458096db76e1e214f, type: 3}
      propertyPath: m_AnchoredPosition.x
      value: 0
      objectReference: {fileID: 0}
    - target: {fileID: 7239011977115153342, guid: 73d3e2903ea08cf458096db76e1e214f, type: 3}
      propertyPath: m_AnchoredPosition.y
      value: 0
      objectReference: {fileID: 0}
    - target: {fileID: 8472718937829233091, guid: 73d3e2903ea08cf458096db76e1e214f, type: 3}
      propertyPath: m_OnClick.m_PersistentCalls.m_Calls.Array.size
      value: 1
      objectReference: {fileID: 0}
    - target: {fileID: 8472718937829233091, guid: 73d3e2903ea08cf458096db76e1e214f, type: 3}
      propertyPath: m_OnClick.m_PersistentCalls.m_Calls.Array.data[0].m_Mode
      value: 1
      objectReference: {fileID: 0}
    - target: {fileID: 8472718937829233091, guid: 73d3e2903ea08cf458096db76e1e214f, type: 3}
      propertyPath: m_OnClick.m_PersistentCalls.m_Calls.Array.data[0].m_Target
      value: 
      objectReference: {fileID: 1946092207}
    - target: {fileID: 8472718937829233091, guid: 73d3e2903ea08cf458096db76e1e214f, type: 3}
      propertyPath: m_OnClick.m_PersistentCalls.m_Calls.Array.data[0].m_CallState
      value: 2
      objectReference: {fileID: 0}
    - target: {fileID: 8472718937829233091, guid: 73d3e2903ea08cf458096db76e1e214f, type: 3}
      propertyPath: m_OnClick.m_PersistentCalls.m_Calls.Array.data[0].m_MethodName
      value: DestroyGizmos
      objectReference: {fileID: 0}
    - target: {fileID: 8472718937829233091, guid: 73d3e2903ea08cf458096db76e1e214f, type: 3}
      propertyPath: m_OnClick.m_PersistentCalls.m_Calls.Array.data[0].m_TargetAssemblyTypeName
      value: Qualcomm.Snapdragon.Spaces.Samples.AnchorSampleController, Assembly-CSharp
      objectReference: {fileID: 0}
    - target: {fileID: 8472718937829233091, guid: 73d3e2903ea08cf458096db76e1e214f, type: 3}
      propertyPath: m_OnClick.m_PersistentCalls.m_Calls.Array.data[0].m_Arguments.m_ObjectArgumentAssemblyTypeName
      value: UnityEngine.Object, UnityEngine
      objectReference: {fileID: 0}
    - target: {fileID: 9035829885950714825, guid: 73d3e2903ea08cf458096db76e1e214f, type: 3}
      propertyPath: m_IsActive
      value: 1
      objectReference: {fileID: 0}
    m_RemovedComponents: []
  m_SourcePrefab: {fileID: 100100000, guid: 73d3e2903ea08cf458096db76e1e214f, type: 3}
--- !u!114 &810271368 stripped
MonoBehaviour:
  m_CorrespondingSourceObject: {fileID: 1941985165972063070, guid: 73d3e2903ea08cf458096db76e1e214f, type: 3}
  m_PrefabInstance: {fileID: 810271367}
  m_PrefabAsset: {fileID: 0}
  m_GameObject: {fileID: 0}
  m_Enabled: 1
  m_EditorHideFlags: 0
  m_Script: {fileID: 11500000, guid: 5f7201a12d95ffc409449d95f23cf332, type: 3}
  m_Name: 
  m_EditorClassIdentifier: 
--- !u!224 &810271369 stripped
RectTransform:
  m_CorrespondingSourceObject: {fileID: 2518008113219219777, guid: 73d3e2903ea08cf458096db76e1e214f, type: 3}
  m_PrefabInstance: {fileID: 810271367}
  m_PrefabAsset: {fileID: 0}
--- !u!114 &810271370 stripped
MonoBehaviour:
  m_CorrespondingSourceObject: {fileID: 1463789618551067489, guid: 73d3e2903ea08cf458096db76e1e214f, type: 3}
  m_PrefabInstance: {fileID: 810271367}
  m_PrefabAsset: {fileID: 0}
  m_GameObject: {fileID: 0}
  m_Enabled: 1
  m_EditorHideFlags: 0
  m_Script: {fileID: 11500000, guid: 9085046f02f69544eb97fd06b6048fe2, type: 3}
  m_Name: 
  m_EditorClassIdentifier: 
--- !u!1 &810271371 stripped
GameObject:
  m_CorrespondingSourceObject: {fileID: 2630121900222973827, guid: 73d3e2903ea08cf458096db76e1e214f, type: 3}
  m_PrefabInstance: {fileID: 810271367}
  m_PrefabAsset: {fileID: 0}
--- !u!1 &810271372 stripped
GameObject:
  m_CorrespondingSourceObject: {fileID: 9035829885950714825, guid: 73d3e2903ea08cf458096db76e1e214f, type: 3}
  m_PrefabInstance: {fileID: 810271367}
  m_PrefabAsset: {fileID: 0}
--- !u!1001 &981961767
PrefabInstance:
  m_ObjectHideFlags: 0
  serializedVersion: 2
  m_Modification:
    m_TransformParent: {fileID: 1865533052}
    m_Modifications:
    - target: {fileID: 6460956797150643850, guid: 4f2399a5c09ca80418ae45068bbb8500, type: 3}
      propertyPath: m_IsActive
      value: 1
      objectReference: {fileID: 0}
    - target: {fileID: 6460956797516557102, guid: 4f2399a5c09ca80418ae45068bbb8500, type: 3}
      propertyPath: m_IsActive
      value: 1
      objectReference: {fileID: 0}
    - target: {fileID: 6460956798401144777, guid: 4f2399a5c09ca80418ae45068bbb8500, type: 3}
      propertyPath: m_RootOrder
      value: 1
      objectReference: {fileID: 0}
    - target: {fileID: 6460956798401144777, guid: 4f2399a5c09ca80418ae45068bbb8500, type: 3}
      propertyPath: m_LocalPosition.x
      value: 0
      objectReference: {fileID: 0}
    - target: {fileID: 6460956798401144777, guid: 4f2399a5c09ca80418ae45068bbb8500, type: 3}
      propertyPath: m_LocalPosition.y
      value: 0
      objectReference: {fileID: 0}
    - target: {fileID: 6460956798401144777, guid: 4f2399a5c09ca80418ae45068bbb8500, type: 3}
      propertyPath: m_LocalPosition.z
      value: 0
      objectReference: {fileID: 0}
    - target: {fileID: 6460956798401144777, guid: 4f2399a5c09ca80418ae45068bbb8500, type: 3}
      propertyPath: m_LocalRotation.w
      value: 1
      objectReference: {fileID: 0}
    - target: {fileID: 6460956798401144777, guid: 4f2399a5c09ca80418ae45068bbb8500, type: 3}
      propertyPath: m_LocalRotation.x
      value: -0
      objectReference: {fileID: 0}
    - target: {fileID: 6460956798401144777, guid: 4f2399a5c09ca80418ae45068bbb8500, type: 3}
      propertyPath: m_LocalRotation.y
      value: -0
      objectReference: {fileID: 0}
    - target: {fileID: 6460956798401144777, guid: 4f2399a5c09ca80418ae45068bbb8500, type: 3}
      propertyPath: m_LocalRotation.z
      value: -0
      objectReference: {fileID: 0}
    - target: {fileID: 6460956798401144777, guid: 4f2399a5c09ca80418ae45068bbb8500, type: 3}
      propertyPath: m_LocalEulerAnglesHint.x
      value: 0
      objectReference: {fileID: 0}
    - target: {fileID: 6460956798401144777, guid: 4f2399a5c09ca80418ae45068bbb8500, type: 3}
      propertyPath: m_LocalEulerAnglesHint.y
      value: 0
      objectReference: {fileID: 0}
    - target: {fileID: 6460956798401144777, guid: 4f2399a5c09ca80418ae45068bbb8500, type: 3}
      propertyPath: m_LocalEulerAnglesHint.z
      value: 0
      objectReference: {fileID: 0}
    - target: {fileID: 6460956798401144782, guid: 4f2399a5c09ca80418ae45068bbb8500, type: 3}
      propertyPath: m_Name
      value: Interaction
      objectReference: {fileID: 0}
    m_RemovedComponents: []
  m_SourcePrefab: {fileID: 100100000, guid: 4f2399a5c09ca80418ae45068bbb8500, type: 3}
--- !u!114 &981961768 stripped
MonoBehaviour:
  m_CorrespondingSourceObject: {fileID: 6969370630261470818, guid: 4f2399a5c09ca80418ae45068bbb8500, type: 3}
  m_PrefabInstance: {fileID: 981961767}
  m_PrefabAsset: {fileID: 0}
  m_GameObject: {fileID: 0}
  m_Enabled: 1
  m_EditorHideFlags: 0
  m_Script: {fileID: 11500000, guid: d672a8272d8043d419d97fbe396ae397, type: 3}
  m_Name: 
  m_EditorClassIdentifier: 
--- !u!4 &981961769 stripped
Transform:
  m_CorrespondingSourceObject: {fileID: 6460956798401144777, guid: 4f2399a5c09ca80418ae45068bbb8500, type: 3}
  m_PrefabInstance: {fileID: 981961767}
  m_PrefabAsset: {fileID: 0}
--- !u!1 &1178229386
GameObject:
  m_ObjectHideFlags: 0
  m_CorrespondingSourceObject: {fileID: 0}
  m_PrefabInstance: {fileID: 0}
  m_PrefabAsset: {fileID: 0}
  serializedVersion: 6
  m_Component:
  - component: {fileID: 1178229387}
  m_Layer: 0
  m_Name: Sample Assets
  m_TagString: Untagged
  m_Icon: {fileID: 0}
  m_NavMeshLayer: 0
  m_StaticEditorFlags: 0
  m_IsActive: 1
--- !u!4 &1178229387
Transform:
  m_ObjectHideFlags: 0
  m_CorrespondingSourceObject: {fileID: 0}
  m_PrefabInstance: {fileID: 0}
  m_PrefabAsset: {fileID: 0}
  m_GameObject: {fileID: 1178229386}
  m_LocalRotation: {x: 0, y: 0, z: 0, w: 1}
  m_LocalPosition: {x: 0, y: 0, z: 0}
  m_LocalScale: {x: 1, y: 1, z: 1}
  m_ConstrainProportionsScale: 0
  m_Children:
  - {fileID: 1946092208}
  - {fileID: 1676780722}
  m_Father: {fileID: 0}
  m_RootOrder: 3
  m_LocalEulerAnglesHint: {x: 0, y: 0, z: 0}
--- !u!1 &1676780721
GameObject:
  m_ObjectHideFlags: 0
  m_CorrespondingSourceObject: {fileID: 0}
  m_PrefabInstance: {fileID: 0}
  m_PrefabAsset: {fileID: 0}
  serializedVersion: 6
  m_Component:
  - component: {fileID: 1676780722}
  - component: {fileID: 1676780723}
  m_Layer: 0
  m_Name: Directional Light
  m_TagString: Untagged
  m_Icon: {fileID: 0}
  m_NavMeshLayer: 0
  m_StaticEditorFlags: 0
  m_IsActive: 1
--- !u!4 &1676780722
Transform:
  m_ObjectHideFlags: 0
  m_CorrespondingSourceObject: {fileID: 0}
  m_PrefabInstance: {fileID: 0}
  m_PrefabAsset: {fileID: 0}
  m_GameObject: {fileID: 1676780721}
  m_LocalRotation: {x: 0.40821788, y: -0.23456968, z: 0.10938163, w: 0.8754261}
  m_LocalPosition: {x: 0, y: 0, z: 0}
  m_LocalScale: {x: 1, y: 1, z: 1}
  m_ConstrainProportionsScale: 0
  m_Children: []
  m_Father: {fileID: 1178229387}
  m_RootOrder: 1
  m_LocalEulerAnglesHint: {x: 50, y: -30, z: 0}
--- !u!108 &1676780723
Light:
  m_ObjectHideFlags: 0
  m_CorrespondingSourceObject: {fileID: 0}
  m_PrefabInstance: {fileID: 0}
  m_PrefabAsset: {fileID: 0}
  m_GameObject: {fileID: 1676780721}
  m_Enabled: 1
  serializedVersion: 10
  m_Type: 1
  m_Shape: 0
  m_Color: {r: 1, g: 0.95686275, b: 0.8392157, a: 1}
  m_Intensity: 1
  m_Range: 10
  m_SpotAngle: 30
  m_InnerSpotAngle: 21.802082
  m_CookieSize: 10
  m_Shadows:
    m_Type: 0
    m_Resolution: -1
    m_CustomResolution: -1
    m_Strength: 1
    m_Bias: 0.05
    m_NormalBias: 0.4
    m_NearPlane: 0.2
    m_CullingMatrixOverride:
      e00: 1
      e01: 0
      e02: 0
      e03: 0
      e10: 0
      e11: 1
      e12: 0
      e13: 0
      e20: 0
      e21: 0
      e22: 1
      e23: 0
      e30: 0
      e31: 0
      e32: 0
      e33: 1
    m_UseCullingMatrixOverride: 0
  m_Cookie: {fileID: 0}
  m_DrawHalo: 0
  m_Flare: {fileID: 0}
  m_RenderMode: 0
  m_CullingMask:
    serializedVersion: 2
    m_Bits: 4294967295
  m_RenderingLayerMask: 1
  m_Lightmapping: 4
  m_LightShadowCasterMode: 0
  m_AreaSize: {x: 1, y: 1}
  m_BounceIntensity: 1
  m_ColorTemperature: 6570
  m_UseColorTemperature: 0
  m_BoundingSphereOverride: {x: 0, y: 0, z: 0, w: 0}
  m_UseBoundingSphereOverride: 0
  m_UseViewFrustumForShadowCasterCull: 1
  m_ShadowRadius: 0
  m_ShadowAngle: 0
--- !u!1 &1865533050
GameObject:
  m_ObjectHideFlags: 0
  m_CorrespondingSourceObject: {fileID: 0}
  m_PrefabInstance: {fileID: 0}
  m_PrefabAsset: {fileID: 0}
  serializedVersion: 6
  m_Component:
  - component: {fileID: 1865533052}
  - component: {fileID: 1865533051}
  - component: {fileID: 1865533053}
  - component: {fileID: 1865533054}
  - component: {fileID: 1865533055}
  m_Layer: 0
  m_Name: AR Session Origin
  m_TagString: Untagged
  m_Icon: {fileID: 0}
  m_NavMeshLayer: 0
  m_StaticEditorFlags: 0
  m_IsActive: 1
--- !u!114 &1865533051
MonoBehaviour:
  m_ObjectHideFlags: 0
  m_CorrespondingSourceObject: {fileID: 0}
  m_PrefabInstance: {fileID: 0}
  m_PrefabAsset: {fileID: 0}
  m_GameObject: {fileID: 1865533050}
  m_Enabled: 1
  m_EditorHideFlags: 0
  m_Script: {fileID: 11500000, guid: 520bb47c46cf8624fafb307b7d1b862a, type: 3}
  m_Name: 
  m_EditorClassIdentifier: 
  m_Camera: {fileID: 83868169}
--- !u!4 &1865533052
Transform:
  m_ObjectHideFlags: 0
  m_CorrespondingSourceObject: {fileID: 0}
  m_PrefabInstance: {fileID: 0}
  m_PrefabAsset: {fileID: 0}
  m_GameObject: {fileID: 1865533050}
  m_LocalRotation: {x: 0, y: 0, z: 0, w: 1}
  m_LocalPosition: {x: 0, y: 0, z: 0}
  m_LocalScale: {x: 1, y: 1, z: 1}
  m_ConstrainProportionsScale: 0
  m_Children:
  - {fileID: 83868173}
  - {fileID: 981961769}
  m_Father: {fileID: 0}
  m_RootOrder: 1
  m_LocalEulerAnglesHint: {x: 0, y: 0, z: 0}
--- !u!114 &1865533053
MonoBehaviour:
  m_ObjectHideFlags: 0
  m_CorrespondingSourceObject: {fileID: 0}
  m_PrefabInstance: {fileID: 0}
  m_PrefabAsset: {fileID: 0}
  m_GameObject: {fileID: 1865533050}
  m_Enabled: 1
  m_EditorHideFlags: 0
  m_Script: {fileID: 11500000, guid: 728ad7fae8e460a4ba41265c7308d757, type: 3}
  m_Name: 
  m_EditorClassIdentifier: 
  m_AnchorPrefab: {fileID: 0}
--- !u!114 &1865533054
MonoBehaviour:
  m_ObjectHideFlags: 0
  m_CorrespondingSourceObject: {fileID: 0}
  m_PrefabInstance: {fileID: 0}
  m_PrefabAsset: {fileID: 0}
  m_GameObject: {fileID: 1865533050}
  m_Enabled: 1
  m_EditorHideFlags: 0
  m_Script: {fileID: 11500000, guid: f7664ed570a14b27b08e19b1987eda40, type: 3}
  m_Name: 
  m_EditorClassIdentifier: 
--- !u!114 &1865533055
MonoBehaviour:
  m_ObjectHideFlags: 0
  m_CorrespondingSourceObject: {fileID: 0}
  m_PrefabInstance: {fileID: 0}
  m_PrefabAsset: {fileID: 0}
  m_GameObject: {fileID: 1865533050}
  m_Enabled: 1
  m_EditorHideFlags: 0
  m_Script: {fileID: 11500000, guid: fa17d122634046b4a8e23048891fafc5, type: 3}
  m_Name: 
  m_EditorClassIdentifier: 
  m_RaycastPrefab: {fileID: 0}
--- !u!1 &1946092206
GameObject:
  m_ObjectHideFlags: 0
  m_CorrespondingSourceObject: {fileID: 0}
  m_PrefabInstance: {fileID: 0}
  m_PrefabAsset: {fileID: 0}
  serializedVersion: 6
  m_Component:
  - component: {fileID: 1946092208}
  - component: {fileID: 1946092207}
  m_Layer: 0
  m_Name: Anchor Sample Controller
  m_TagString: Untagged
  m_Icon: {fileID: 0}
  m_NavMeshLayer: 0
  m_StaticEditorFlags: 0
  m_IsActive: 1
--- !u!114 &1946092207
MonoBehaviour:
  m_ObjectHideFlags: 0
  m_CorrespondingSourceObject: {fileID: 0}
  m_PrefabInstance: {fileID: 0}
  m_PrefabAsset: {fileID: 0}
  m_GameObject: {fileID: 1946092206}
  m_Enabled: 1
  m_EditorHideFlags: 0
  m_Script: {fileID: 11500000, guid: 6a542b196ced86543afa259e9952b687, type: 3}
  m_Name: 
  m_EditorClassIdentifier: 
  InteractionManager: {fileID: 981961768}
  LeftControllerPrimary: {fileID: 4234151240439666235, guid: 3b8161acd44bb4e9489a58e42924c914, type: 3}
  RightControllerPrimary: {fileID: -7827405408830108060, guid: 3b8161acd44bb4e9489a58e42924c914, type: 3}
  RunSubsystemChecks: 1
  ContentOnPassed:
  - {fileID: 810271372}
  ContentOnFailed:
  - {fileID: 810271371}
  AnchorManager: {fileID: 1865533053}
  GizmoTransparent: {fileID: 5732716946704694469, guid: 0531525474b10a34f9f74dca396c0ecc, type: 3}
  GizmoSurface: {fileID: 225836009564842297, guid: 5d67941363da64345b08ed4b4e2d285a, type: 3}
  GizmoTrackedAnchor: {fileID: 5795248973584940906, guid: dda13342c7e134b1ca4654327d39d38c, type: 3}
  GizmoUntrackedAnchor: {fileID: 980216432700594441, guid: b4580d6d2647c4ad1987d2990cec5175, type: 3}
  GizmoSavedAddition: {fileID: 5795248973584940906, guid: d42d5bda09e40ee41bb4c7c48e9b48c8, type: 3}
  GizmoNotSavedAddition: {fileID: 5795248973584940906, guid: 9f884def69bd85d4898ec044d7bf0013, type: 3}
  CreateButtonUI: {fileID: 471158137}
  TriggerAction: {fileID: -2792267195740486308, guid: 3b8161acd44bb4e9489a58e42924c914, type: 3}
  SaveNewAnchorsToggle: {fileID: 13113495}
  UseSurfacePlacementToggle: {fileID: 810271370}
  NumberOfAnchorsStoredText: {fileID: 810271368}
  PlacementDistance: 1
  RestrictRaycastDistance: 0
--- !u!4 &1946092208
Transform:
  m_ObjectHideFlags: 0
  m_CorrespondingSourceObject: {fileID: 0}
  m_PrefabInstance: {fileID: 0}
  m_PrefabAsset: {fileID: 0}
  m_GameObject: {fileID: 1946092206}
  m_LocalRotation: {x: -0, y: -0, z: -0, w: 1}
  m_LocalPosition: {x: 0, y: 0, z: 0}
  m_LocalScale: {x: 1, y: 1, z: 1}
  m_ConstrainProportionsScale: 0
  m_Children: []
  m_Father: {fileID: 1178229387}
  m_RootOrder: 0
  m_LocalEulerAnglesHint: {x: 0, y: 0, z: 0}
