Library\Bee\artifacts\mvdfrm\Unity.EditorCoroutines.Editor.ref.dll_1315E0A407C70415.mvfrm
Library\Bee\artifacts\mvdfrm\Unity.InputSystem.ForUI.ref.dll_8456852F39E72DEA.mvfrm
Library\Bee\artifacts\mvdfrm\Unity.InputSystem.ref.dll_7B1D397D2193763B.mvfrm
Library\Bee\artifacts\mvdfrm\Unity.Mathematics.Editor.ref.dll_553CFFCCE7430329.mvfrm
Library\Bee\artifacts\mvdfrm\Unity.Mathematics.ref.dll_66DE4C1C9A03AD08.mvfrm
Library\Bee\artifacts\mvdfrm\Unity.Performance.Profile-Analyzer.Editor.ref.dll_8B44F821019897E5.mvfrm
Library\Bee\artifacts\mvdfrm\Unity.PlasticSCM.Editor.ref.dll_A558B9E65539D7D0.mvfrm
Library\Bee\artifacts\mvdfrm\Unity.Rider.Editor.ref.dll_DA88E6A3E9EB6155.mvfrm
Library\Bee\artifacts\mvdfrm\Unity.TestTools.CodeCoverage.Editor.OpenCover.Model.ref.dll_22F664961FC0158D.mvfrm
Library\Bee\artifacts\mvdfrm\Unity.TestTools.CodeCoverage.Editor.OpenCover.Mono.Reflection.ref.dll_39D3266F6029657A.mvfrm
Library\Bee\artifacts\mvdfrm\Unity.TestTools.CodeCoverage.Editor.ref.dll_C6D619E6129B87D3.mvfrm
Library\Bee\artifacts\mvdfrm\Unity.TextMeshPro.Editor.ref.dll_D0BA3615D322EF6C.mvfrm
Library\Bee\artifacts\mvdfrm\Unity.TextMeshPro.ref.dll_02929A3ECA791895.mvfrm
Library\Bee\artifacts\mvdfrm\Unity.Timeline.Editor.ref.dll_17F688653313AA4C.mvfrm
Library\Bee\artifacts\mvdfrm\Unity.Timeline.ref.dll_16F8EA6B67022FB5.mvfrm
Library\Bee\artifacts\mvdfrm\Unity.VSCode.Editor.ref.dll_AE868214B5ED3D13.mvfrm
Library\Bee\artifacts\mvdfrm\Unity.VisualScripting.Core.Editor.ref.dll_514B12BC0D1D8DB7.mvfrm
Library\Bee\artifacts\mvdfrm\Unity.VisualScripting.Core.ref.dll_BF8650D11F8E519A.mvfrm
Library\Bee\artifacts\mvdfrm\Unity.VisualScripting.Flow.Editor.ref.dll_CE7BFB6B1BFC18F8.mvfrm
Library\Bee\artifacts\mvdfrm\Unity.VisualScripting.Flow.ref.dll_06973127A197C649.mvfrm
Library\Bee\artifacts\mvdfrm\Unity.VisualScripting.SettingsProvider.Editor.ref.dll_EE1755C0672F8EE2.mvfrm
Library\Bee\artifacts\mvdfrm\Unity.VisualScripting.Shared.Editor.ref.dll_6CA31C4FA5286AB1.mvfrm
Library\Bee\artifacts\mvdfrm\Unity.VisualScripting.State.Editor.ref.dll_DC1879B0E64A8F15.mvfrm
Library\Bee\artifacts\mvdfrm\Unity.VisualScripting.State.ref.dll_900B338E31D9525C.mvfrm
Library\Bee\artifacts\mvdfrm\Unity.VisualStudio.Editor.ref.dll_0FE027DDD6F41767.mvfrm
Library\Bee\artifacts\mvdfrm\Unity.XR.ARAnalytics.Editor.ref.dll_C69C3E1D221AB26C.mvfrm
Library\Bee\artifacts\mvdfrm\Unity.XR.ARFoundation.Editor.ref.dll_C5E1AAA9C0490A87.mvfrm
Library\Bee\artifacts\mvdfrm\Unity.XR.ARFoundation.InternalUtils.ref.dll_534DC97E033D2800.mvfrm
Library\Bee\artifacts\mvdfrm\Unity.XR.ARFoundation.ref.dll_F78D743A311D47CA.mvfrm
Library\Bee\artifacts\mvdfrm\Unity.XR.ARSubsystems.Editor.ref.dll_4D2B445E1E0255F6.mvfrm
Library\Bee\artifacts\mvdfrm\Unity.XR.ARSubsystems.ref.dll_9211631F90C2516B.mvfrm
Library\Bee\artifacts\mvdfrm\Unity.XR.CoreUtils.Editor.ref.dll_8144CEBFC8DD722F.mvfrm
Library\Bee\artifacts\mvdfrm\Unity.XR.CoreUtils.ref.dll_7BD60984F2BC85A2.mvfrm
Library\Bee\artifacts\mvdfrm\Unity.XR.Interaction.Toolkit.Editor.ref.dll_EA0A41A881A38C0F.mvfrm
Library\Bee\artifacts\mvdfrm\Unity.XR.Interaction.Toolkit.ref.dll_3BC3806C28E64DC2.mvfrm
Library\Bee\artifacts\mvdfrm\Unity.XR.Management.Editor.ref.dll_63D1283B59813AF8.mvfrm
Library\Bee\artifacts\mvdfrm\Unity.XR.Management.ref.dll_B8AA0C3955A88449.mvfrm
Library\Bee\artifacts\mvdfrm\Unity.XR.OpenXR.Editor.ref.dll_3621FFDAA8DB43B7.mvfrm
Library\Bee\artifacts\mvdfrm\Unity.XR.OpenXR.Features.ConformanceAutomation.ref.dll_F8E9C0BA9435A965.mvfrm
Library\Bee\artifacts\mvdfrm\Unity.XR.OpenXR.Features.MetaQuestSupport.Editor.ref.dll_D7F834629185E1F2.mvfrm
Library\Bee\artifacts\mvdfrm\Unity.XR.OpenXR.Features.MetaQuestSupport.ref.dll_F733DA097ED735AF.mvfrm
Library\Bee\artifacts\mvdfrm\Unity.XR.OpenXR.Features.OculusQuestSupport.Editor.ref.dll_947714FF8A5EE50E.mvfrm
Library\Bee\artifacts\mvdfrm\Unity.XR.OpenXR.Features.OculusQuestSupport.ref.dll_54D437838FE1B0D3.mvfrm
Library\Bee\artifacts\mvdfrm\Unity.XR.OpenXR.Features.RuntimeDebugger.Editor.ref.dll_CB4BEE4624B29F3F.mvfrm
Library\Bee\artifacts\mvdfrm\Unity.XR.OpenXR.ref.dll_CD391CA4E5ED3B9A.mvfrm
Library\Bee\artifacts\mvdfrm\Unity.XR.Simulation.Editor.ref.dll_BCFCDE3F5A062E94.mvfrm
Library\Bee\artifacts\mvdfrm\Unity.XR.Simulation.ref.dll_77B2E4396CE206ED.mvfrm
Library\Bee\artifacts\mvdfrm\UnityEditor.SpatialTracking.ref.dll_4005BB3EAE0C01EA.mvfrm
Library\Bee\artifacts\mvdfrm\UnityEditor.UI.ref.dll_0174E068A5FA251B.mvfrm
Library\Bee\artifacts\mvdfrm\UnityEditor.XR.LegacyInputHelpers.ref.dll_A2957EFDA2C64C37.mvfrm
Library\Bee\artifacts\mvdfrm\UnityEngine.SpatialTracking.ref.dll_CC46AD662704850F.mvfrm
Library\Bee\artifacts\mvdfrm\UnityEngine.UI.ref.dll_BDDAB6C3AC1C4D86.mvfrm
Library\Bee\artifacts\mvdfrm\UnityEngine.XR.LegacyInputHelpers.ref.dll_632513B3DE0B9F3C.mvfrm
Library\Bee\artifacts\mvdfrm\UnityEditor.CoreModule.dll_412955681563F740.mvfrm
Library\Bee\artifacts\mvdfrm\UnityEditor.DeviceSimulatorModule.dll_21B200247291BA81.mvfrm
Library\Bee\artifacts\mvdfrm\UnityEditor.DiagnosticsModule.dll_CADA9F59B6D1E48F.mvfrm
Library\Bee\artifacts\mvdfrm\UnityEditor.dll_425AACEDA7170E55.mvfrm
Library\Bee\artifacts\mvdfrm\UnityEditor.EditorToolbarModule.dll_96556ED202202231.mvfrm
Library\Bee\artifacts\mvdfrm\UnityEditor.GraphViewModule.dll_6DE9BE96B13D8C86.mvfrm
Library\Bee\artifacts\mvdfrm\UnityEditor.PresetsUIModule.dll_294FF778B395E48B.mvfrm
Library\Bee\artifacts\mvdfrm\UnityEditor.QuickSearchModule.dll_55EA20670FA8E0E8.mvfrm
Library\Bee\artifacts\mvdfrm\UnityEditor.SceneTemplateModule.dll_B9F4DF90010CCC69.mvfrm
Library\Bee\artifacts\mvdfrm\UnityEditor.SceneViewModule.dll_AC99A19EA6605994.mvfrm
Library\Bee\artifacts\mvdfrm\UnityEditor.TextCoreFontEngineModule.dll_321719FA34DF20BE.mvfrm
Library\Bee\artifacts\mvdfrm\UnityEditor.TextCoreTextEngineModule.dll_79FF506BC462D9DC.mvfrm
Library\Bee\artifacts\mvdfrm\UnityEditor.UIBuilderModule.dll_C2726BB323F605BA.mvfrm
Library\Bee\artifacts\mvdfrm\UnityEditor.UIElementsModule.dll_AB056979FCF97E7C.mvfrm
Library\Bee\artifacts\mvdfrm\UnityEditor.UIElementsSamplesModule.dll_12C0444C3C8F9EB1.mvfrm
Library\Bee\artifacts\mvdfrm\UnityEditor.UnityConnectModule.dll_FB2CEFA88B6445F6.mvfrm
Library\Bee\artifacts\mvdfrm\UnityEngine.AccessibilityModule.dll_EC9A4B270182F406.mvfrm
Library\Bee\artifacts\mvdfrm\UnityEngine.AIModule.dll_774ACEE460FF5D94.mvfrm
Library\Bee\artifacts\mvdfrm\UnityEngine.AndroidJNIModule.dll_294E524D4618ED52.mvfrm
Library\Bee\artifacts\mvdfrm\UnityEngine.AnimationModule.dll_3C6F3ABF8B9A612C.mvfrm
Library\Bee\artifacts\mvdfrm\UnityEngine.ARModule.dll_30BD93E7BE1CBC5D.mvfrm
Library\Bee\artifacts\mvdfrm\UnityEngine.AssetBundleModule.dll_99D35358720F95DA.mvfrm
Library\Bee\artifacts\mvdfrm\UnityEngine.AudioModule.dll_B518066BFB85971E.mvfrm
Library\Bee\artifacts\mvdfrm\UnityEngine.ClothModule.dll_1C006366D5A27602.mvfrm
Library\Bee\artifacts\mvdfrm\UnityEngine.ContentLoadModule.dll_32E9AC9940923DC7.mvfrm
Library\Bee\artifacts\mvdfrm\UnityEngine.CoreModule.dll_644A28BABD69626B.mvfrm
Library\Bee\artifacts\mvdfrm\UnityEngine.CrashReportingModule.dll_A8CB025EDB4E26E3.mvfrm
Library\Bee\artifacts\mvdfrm\UnityEngine.DirectorModule.dll_8A44A88247BD7348.mvfrm
Library\Bee\artifacts\mvdfrm\UnityEngine.dll_74FEF3C6058A9B3A.mvfrm
Library\Bee\artifacts\mvdfrm\UnityEngine.DSPGraphModule.dll_8F9609EBBA1E4469.mvfrm
Library\Bee\artifacts\mvdfrm\UnityEngine.GameCenterModule.dll_539B9C680C59DE43.mvfrm
Library\Bee\artifacts\mvdfrm\UnityEngine.GIModule.dll_0F8717F1FCAE45AE.mvfrm
Library\Bee\artifacts\mvdfrm\UnityEngine.GridModule.dll_41BB44A8D5BDF862.mvfrm
Library\Bee\artifacts\mvdfrm\UnityEngine.HotReloadModule.dll_BDB7F8C566CD7CAE.mvfrm
Library\Bee\artifacts\mvdfrm\UnityEngine.ImageConversionModule.dll_9350C04664717FF9.mvfrm
Library\Bee\artifacts\mvdfrm\UnityEngine.IMGUIModule.dll_ED77A5D2C1B72AFF.mvfrm
Library\Bee\artifacts\mvdfrm\UnityEngine.InputLegacyModule.dll_2B186E770A014BCB.mvfrm
Library\Bee\artifacts\mvdfrm\UnityEngine.InputModule.dll_1B8DCE1C71BDBBC2.mvfrm
Library\Bee\artifacts\mvdfrm\UnityEngine.JSONSerializeModule.dll_4CB1D46300BE5490.mvfrm
Library\Bee\artifacts\mvdfrm\UnityEngine.LocalizationModule.dll_B9162F10D4680BB5.mvfrm
Library\Bee\artifacts\mvdfrm\UnityEngine.ParticleSystemModule.dll_FBDD4BAB495FB271.mvfrm
Library\Bee\artifacts\mvdfrm\UnityEngine.PerformanceReportingModule.dll_98B7840D6B58222A.mvfrm
Library\Bee\artifacts\mvdfrm\UnityEngine.Physics2DModule.dll_89152AB02C9758C1.mvfrm
Library\Bee\artifacts\mvdfrm\UnityEngine.PhysicsModule.dll_BB05528A2B7271AF.mvfrm
Library\Bee\artifacts\mvdfrm\UnityEngine.ProfilerModule.dll_BC8AE1B8E116FA55.mvfrm
Library\Bee\artifacts\mvdfrm\UnityEngine.PropertiesModule.dll_80D6DBA67F45427F.mvfrm
Library\Bee\artifacts\mvdfrm\UnityEngine.RuntimeInitializeOnLoadManagerInitializerModule.dll_1B9F1DB1BADBCB8A.mvfrm
Library\Bee\artifacts\mvdfrm\UnityEngine.ScreenCaptureModule.dll_669981E8152A80F2.mvfrm
Library\Bee\artifacts\mvdfrm\UnityEngine.SharedInternalsModule.dll_1761FF1BDB9F7B49.mvfrm
Library\Bee\artifacts\mvdfrm\UnityEngine.SpriteMaskModule.dll_3CC80EF82DC973BD.mvfrm
Library\Bee\artifacts\mvdfrm\UnityEngine.SpriteShapeModule.dll_B33480B327B1CDE4.mvfrm
Library\Bee\artifacts\mvdfrm\UnityEngine.StreamingModule.dll_F104280FDB22186A.mvfrm
Library\Bee\artifacts\mvdfrm\UnityEngine.SubstanceModule.dll_CDAF3C5926751678.mvfrm
Library\Bee\artifacts\mvdfrm\UnityEngine.SubsystemsModule.dll_A7757559FC115BD0.mvfrm
Library\Bee\artifacts\mvdfrm\UnityEngine.TerrainModule.dll_D54BCDF90130BA9D.mvfrm
Library\Bee\artifacts\mvdfrm\UnityEngine.TerrainPhysicsModule.dll_FC57F47E62A2ACFE.mvfrm
Library\Bee\artifacts\mvdfrm\UnityEngine.TextCoreFontEngineModule.dll_B076954D47DCDF89.mvfrm
Library\Bee\artifacts\mvdfrm\UnityEngine.TextCoreTextEngineModule.dll_F85ECBBED76098A7.mvfrm
Library\Bee\artifacts\mvdfrm\UnityEngine.TextRenderingModule.dll_8FD8F3F2CC6200E7.mvfrm
Library\Bee\artifacts\mvdfrm\UnityEngine.TilemapModule.dll_7448357A18ED9BA6.mvfrm
Library\Bee\artifacts\mvdfrm\UnityEngine.TLSModule.dll_896A5F24D62E3EC3.mvfrm
Library\Bee\artifacts\mvdfrm\UnityEngine.UIElementsModule.dll_ABB3D6C1FF3D97C7.mvfrm
Library\Bee\artifacts\mvdfrm\UnityEngine.UIModule.dll_72BE6D11BD466340.mvfrm
Library\Bee\artifacts\mvdfrm\UnityEngine.UmbraModule.dll_2FECB28488AC4291.mvfrm
Library\Bee\artifacts\mvdfrm\UnityEngine.UnityAnalyticsCommonModule.dll_33F641518540C088.mvfrm
Library\Bee\artifacts\mvdfrm\UnityEngine.UnityAnalyticsModule.dll_1B7CBC74F587046D.mvfrm
Library\Bee\artifacts\mvdfrm\UnityEngine.UnityConnectModule.dll_E88C73B785EC46A1.mvfrm
Library\Bee\artifacts\mvdfrm\UnityEngine.UnityCurlModule.dll_6F8BDBF0FBAE5319.mvfrm
Library\Bee\artifacts\mvdfrm\UnityEngine.UnityTestProtocolModule.dll_CE82FA3E968AF407.mvfrm
Library\Bee\artifacts\mvdfrm\UnityEngine.UnityWebRequestAssetBundleModule.dll_EE07E98E174D30FE.mvfrm
Library\Bee\artifacts\mvdfrm\UnityEngine.UnityWebRequestAudioModule.dll_10B3D7EBF1C2ECC2.mvfrm
Library\Bee\artifacts\mvdfrm\UnityEngine.UnityWebRequestModule.dll_A4EFC7F06F661A78.mvfrm
Library\Bee\artifacts\mvdfrm\UnityEngine.UnityWebRequestTextureModule.dll_B30FFC07BBC98ED7.mvfrm
Library\Bee\artifacts\mvdfrm\UnityEngine.UnityWebRequestWWWModule.dll_C321111AC7205513.mvfrm
Library\Bee\artifacts\mvdfrm\UnityEngine.VehiclesModule.dll_0207A201C1E742E3.mvfrm
Library\Bee\artifacts\mvdfrm\UnityEngine.VFXModule.dll_0A48F793AC9BA830.mvfrm
Library\Bee\artifacts\mvdfrm\UnityEngine.VideoModule.dll_DA218AD6BE17B2C3.mvfrm
Library\Bee\artifacts\mvdfrm\UnityEngine.VRModule.dll_C59093975F00E8B8.mvfrm
Library\Bee\artifacts\mvdfrm\UnityEngine.WindModule.dll_DA9903E34E9FE0D4.mvfrm
Library\Bee\artifacts\mvdfrm\UnityEngine.XRModule.dll_F84F569BE83B3616.mvfrm
Library\Bee\artifacts\mvdfrm\Unity.Android.Gradle.dll_908A2D80944FE128.mvfrm
Library\Bee\artifacts\mvdfrm\Unity.Android.GradleProject.dll_1B5476006150F90D.mvfrm
Library\Bee\artifacts\mvdfrm\Unity.Android.Types.dll_C48E2BD461E4F994.mvfrm
Library\Bee\artifacts\mvdfrm\UnityEditor.iOS.Extensions.Common.dll_B0D6E843449960C5.mvfrm
Library\Bee\artifacts\mvdfrm\UnityEditor.iOS.Extensions.Xcode.dll_A59EE97F41962857.mvfrm
Library\Bee\artifacts\mvdfrm\Unity.VisualScripting.Antlr3.Runtime.dll_6B5854E2366B9BC5.mvfrm