Library\Bee\artifacts\mvdfrm\UnityEngine.UI.ref.dll_AFC2E85BC2EDBC0B.mvfrm
Library\Bee\artifacts\mvdfrm\UnityEngine.AccessibilityModule.dll_7B6674E2DDC6ED7D.mvfrm
Library\Bee\artifacts\mvdfrm\UnityEngine.AIModule.dll_B65D66B12C868A6D.mvfrm
Library\Bee\artifacts\mvdfrm\UnityEngine.AndroidJNIModule.dll_7A0BAE14010586AB.mvfrm
Library\Bee\artifacts\mvdfrm\UnityEngine.AnimationModule.dll_4395234F8D6CA4E3.mvfrm
Library\Bee\artifacts\mvdfrm\UnityEngine.ARModule.dll_6FD02BB489A3E936.mvfrm
Library\Bee\artifacts\mvdfrm\UnityEngine.AssetBundleModule.dll_B0620B6C782E8671.mvfrm
Library\Bee\artifacts\mvdfrm\UnityEngine.AudioModule.dll_A18C23E9EFE99515.mvfrm
Library\Bee\artifacts\mvdfrm\UnityEngine.ClothModule.dll_087480E4CA0673F9.mvfrm
Library\Bee\artifacts\mvdfrm\UnityEngine.CoreModule.dll_1D8FDB83BF869464.mvfrm
Library\Bee\artifacts\mvdfrm\UnityEngine.CrashReportingModule.dll_0209AEC7736FCE7C.mvfrm
Library\Bee\artifacts\mvdfrm\UnityEngine.DirectorModule.dll_0B2C8302CBE0DB81.mvfrm
Library\Bee\artifacts\mvdfrm\UnityEngine.dll_C286843E532067F1.mvfrm
Library\Bee\artifacts\mvdfrm\UnityEngine.DSPGraphModule.dll_107DE46C3E41ACA2.mvfrm
Library\Bee\artifacts\mvdfrm\UnityEngine.GameCenterModule.dll_A458F82EC746779C.mvfrm
Library\Bee\artifacts\mvdfrm\UnityEngine.GIModule.dll_4E99AFBEC8357287.mvfrm
Library\Bee\artifacts\mvdfrm\UnityEngine.GridModule.dll_FB00F771D7DB2A5B.mvfrm
Library\Bee\artifacts\mvdfrm\UnityEngine.HotReloadModule.dll_C4DDE155689FC065.mvfrm
Library\Bee\artifacts\mvdfrm\UnityEngine.ImageConversionModule.dll_DA61A47DBB965E50.mvfrm
Library\Bee\artifacts\mvdfrm\UnityEngine.IMGUIModule.dll_D9EBC350B61B28F6.mvfrm
Library\Bee\artifacts\mvdfrm\UnityEngine.InputLegacyModule.dll_41A7268B10203C62.mvfrm
Library\Bee\artifacts\mvdfrm\UnityEngine.InputModule.dll_0801EB9A6621B9B9.mvfrm
Library\Bee\artifacts\mvdfrm\UnityEngine.JSONSerializeModule.dll_DB7DFE1EDD024E07.mvfrm
Library\Bee\artifacts\mvdfrm\UnityEngine.LocalizationModule.dll_85E0066C30CD3A2E.mvfrm
Library\Bee\artifacts\mvdfrm\UnityEngine.ParticleSystemModule.dll_551BF813E1815A0A.mvfrm
Library\Bee\artifacts\mvdfrm\UnityEngine.PerformanceReportingModule.dll_F34108B71D838D23.mvfrm
Library\Bee\artifacts\mvdfrm\UnityEngine.Physics2DModule.dll_903B13402E699C78.mvfrm
Library\Bee\artifacts\mvdfrm\UnityEngine.PhysicsModule.dll_72E04165E15CE486.mvfrm
Library\Bee\artifacts\mvdfrm\UnityEngine.ProfilerModule.dll_3D72BC39653A628E.mvfrm
Library\Bee\artifacts\mvdfrm\UnityEngine.RuntimeInitializeOnLoadManagerInitializerModule.dll_1CAC06EE70CBFD41.mvfrm
Library\Bee\artifacts\mvdfrm\UnityEngine.ScreenCaptureModule.dll_F565ABA3F16E7A69.mvfrm
Library\Bee\artifacts\mvdfrm\UnityEngine.SharedInternalsModule.dll_5E72E35332C459A0.mvfrm
Library\Bee\artifacts\mvdfrm\UnityEngine.SpriteMaskModule.dll_8D856ABEE8B60D16.mvfrm
Library\Bee\artifacts\mvdfrm\UnityEngine.SpriteShapeModule.dll_C9C338C72DD0BE7B.mvfrm
Library\Bee\artifacts\mvdfrm\UnityEngine.StreamingModule.dll_F82A109FDCF45C21.mvfrm
Library\Bee\artifacts\mvdfrm\UnityEngine.SubstanceModule.dll_D4D524E928475A2F.mvfrm
Library\Bee\artifacts\mvdfrm\UnityEngine.SubsystemsModule.dll_F832D120B6FDF529.mvfrm
Library\Bee\artifacts\mvdfrm\UnityEngine.TerrainModule.dll_8D26BCD4B71B2D74.mvfrm
Library\Bee\artifacts\mvdfrm\UnityEngine.TerrainPhysicsModule.dll_5596A0E6FAC45497.mvfrm
Library\Bee\artifacts\mvdfrm\UnityEngine.TextCoreFontEngineModule.dll_F70B6FE48C652562.mvfrm
Library\Bee\artifacts\mvdfrm\UnityEngine.TextCoreTextEngineModule.dll_3EF3A6561BE8DE80.mvfrm
Library\Bee\artifacts\mvdfrm\UnityEngine.TextRenderingModule.dll_1EA51DAEA8A5FA5E.mvfrm
Library\Bee\artifacts\mvdfrm\UnityEngine.TilemapModule.dll_2C232455CED80E7D.mvfrm
Library\Bee\artifacts\mvdfrm\UnityEngine.TLSModule.dll_68ACCA8A42D9A3DA.mvfrm
Library\Bee\artifacts\mvdfrm\UnityEngine.UIElementsModule.dll_FC713288BA2A3120.mvfrm
Library\Bee\artifacts\mvdfrm\UnityEngine.UIElementsNativeModule.dll_526E8FC53E4F8977.mvfrm
Library\Bee\artifacts\mvdfrm\UnityEngine.UIModule.dll_B1D104DE88CD9019.mvfrm
Library\Bee\artifacts\mvdfrm\UnityEngine.UmbraModule.dll_1C60D0027D104088.mvfrm
Library\Bee\artifacts\mvdfrm\UnityEngine.UNETModule.dll_B036236D0C9589DD.mvfrm
Library\Bee\artifacts\mvdfrm\UnityEngine.UnityAnalyticsCommonModule.dll_8E7FC5FB376C2B81.mvfrm
Library\Bee\artifacts\mvdfrm\UnityEngine.UnityAnalyticsModule.dll_74BB68DD8DA8AC06.mvfrm
Library\Bee\artifacts\mvdfrm\UnityEngine.UnityConnectModule.dll_B5564B12E251751A.mvfrm
Library\Bee\artifacts\mvdfrm\UnityEngine.UnityCurlModule.dll_76B1C480FD8096D0.mvfrm
Library\Bee\artifacts\mvdfrm\UnityEngine.UnityTestProtocolModule.dll_56B1CE9727A0133E.mvfrm
Library\Bee\artifacts\mvdfrm\UnityEngine.UnityWebRequestAssetBundleModule.dll_A6B63D0D5AC76357.mvfrm
Library\Bee\artifacts\mvdfrm\UnityEngine.UnityWebRequestAudioModule.dll_6B3D5C95A3EE57BB.mvfrm
Library\Bee\artifacts\mvdfrm\UnityEngine.UnityWebRequestModule.dll_EC00AC27C68AF8CF.mvfrm
Library\Bee\artifacts\mvdfrm\UnityEngine.UnityWebRequestTextureModule.dll_2FA4089C53CE02F0.mvfrm
Library\Bee\artifacts\mvdfrm\UnityEngine.UnityWebRequestWWWModule.dll_09B5EBB20BA89AEC.mvfrm
Library\Bee\artifacts\mvdfrm\UnityEngine.VehiclesModule.dll_82EF7C82460AAB1C.mvfrm
Library\Bee\artifacts\mvdfrm\UnityEngine.VFXModule.dll_E98B62F919470D47.mvfrm
Library\Bee\artifacts\mvdfrm\UnityEngine.VideoModule.dll_C695A854B27BB0BA.mvfrm
Library\Bee\artifacts\mvdfrm\UnityEngine.VRModule.dll_04A32B642A881591.mvfrm
Library\Bee\artifacts\mvdfrm\UnityEngine.WindModule.dll_93DEB6AC50BD12CD.mvfrm
Library\Bee\artifacts\mvdfrm\UnityEngine.XRModule.dll_3761EE68B3C262EF.mvfrm
Library\Bee\artifacts\mvdfrm\Unity.VisualScripting.Antlr3.Runtime.dll_1A7D1FB644044147.mvfrm